{
  "numItems":17,
  "activityItems":[
    {
      "description":"Testing again",
      "date":"2016-08-07T01:11:21.1609059Z",
      "hasUgc":false,
      "activityItemType":"TextPost",
      "contentType":"System",
      "shortDescription":"said this (in Funny Glitches)",
      "itemText":"Testing again",
      "shareRoot":"userposts.xboxlive.com/users/xuid(2712882632678259)/posts/2712882632678259(0)_Text.fe600b67-f4a2-4342-a5b8-c0573c64f072",
      "feedItemId":"avty.xboxlive.com/users/xuid(2712882632678259)/contexts/C00000000F008_2016_08/activity/Activity.201608.07.22.2712882632678259(0)_Text.fe600b67-f4a2-4342-a5b8-c0573c64f072",
      "itemRoot":"userposts.xboxlive.com/users/xuid(2712882632678259)/posts/2712882632678259(0)_Text.fe600b67-f4a2-4342-a5b8-c0573c64f072",
      "hasLiked":false,
      "timeline":{
        "timelineId":"3377699720589320",
        "timelineType":"Club",
        "timelineName":"Funny Glitches",
        "timelineImage":"http://images-eds.xboxlive.com/image?url=z951ykn43p4FqWbbFvR2Ec.8vbDhj8G2Xe7JngaTToBrrCmIEEXHC9UNrdJ6P7KIFXxmxGDtE9Vkd62rOpb7JYs2u1RFCJCNAO.uOKjzbKIuccfoUCeh3M2i8uGXe3_F&format=png"
      },
      "authorInfo":{
        "name":"Schief",
        "secondName":"Bill Schiefelbein",
        "imageUrl":"http://images-eds.xboxlive.com/image?url=Hr2eiH8yWKd4q_oa.xgbMn_Nr81xI0exxmgLbuOz_JFlA0OUi9rGwuMNOXkIGIIEK8jlh.jdPkbh2WejTZ_cX6QCWkj6o7jjZoXPcX6CzySCJqQ3s7z5ogvYmLCkBu736DqXP3tK0ISgWEZQOWMb0XS_vuwuqq3BpS3eI9EA0WE-&format=png",
        "color":{
          "primaryColor":"744DA9",
          "secondaryColor":"24153B",
          "tertiaryColor":"4c208a"
        },
        "showAsAvatar":"1",
        "authorType":"User",
        "id":"2712882632678259"
      },
      "userXuid":"2712882632678259"
    },
    {
      "description":"That was a funny glitch!",
      "date":"2016-08-07T01:10:59.2001323Z",
      "hasUgc":false,
      "activityItemType":"TextPost",
      "contentType":"System",
      "shortDescription":"said this (in Funny Glitches)",
      "itemText":"That was a funny glitch!",
      "shareRoot":"userposts.xboxlive.com/users/xuid(2712882632678259)/posts/2712882632678259(0)_Text.70eea6d1-63bc-414a-99de-1a5f0e5e8b2f",
      "feedItemId":"avty.xboxlive.com/users/xuid(2712882632678259)/contexts/C00000000F008_2016_08/activity/Activity.201608.07.22.2712882632678259(0)_Text.70eea6d1-63bc-414a-99de-1a5f0e5e8b2f",
      "itemRoot":"userposts.xboxlive.com/users/xuid(2712882632678259)/posts/2712882632678259(0)_Text.70eea6d1-63bc-414a-99de-1a5f0e5e8b2f",
      "hasLiked":false,
      "timeline":{
        "timelineId":"3377699720589320",
        "timelineType":"Club",
        "timelineName":"Funny Glitches",
        "timelineImage":"http://images-eds.xboxlive.com/image?url=z951ykn43p4FqWbbFvR2Ec.8vbDhj8G2Xe7JngaTToBrrCmIEEXHC9UNrdJ6P7KIFXxmxGDtE9Vkd62rOpb7JYs2u1RFCJCNAO.uOKjzbKIuccfoUCeh3M2i8uGXe3_F&format=png"
      },
      "authorInfo":{
        "name":"Schief",
        "secondName":"Bill Schiefelbein",
        "imageUrl":"http://images-eds.xboxlive.com/image?url=Hr2eiH8yWKd4q_oa.xgbMn_Nr81xI0exxmgLbuOz_JFlA0OUi9rGwuMNOXkIGIIEK8jlh.jdPkbh2WejTZ_cX6QCWkj6o7jjZoXPcX6CzySCJqQ3s7z5ogvYmLCkBu736DqXP3tK0ISgWEZQOWMb0XS_vuwuqq3BpS3eI9EA0WE-&format=png",
        "color":{
          "primaryColor":"744DA9",
          "secondaryColor":"24153B",
          "tertiaryColor":"4c208a"
        },
        "showAsAvatar":"1",
        "authorType":"User",
        "id":"2712882632678259"
      },
      "userXuid":"2712882632678259"
    },
    {
      "achievementScid":"5c5b0100-69c4-40bd-8971-ba0f4f1e2887",
      "achievementId":"10",
      "achievementType":"Persistent",
      "achievementIcon":"http://images-eds.xboxlive.com/image?url=z951ykn43p4FqWbbFvR2Ec.8vbDhj8G2Xe7JngaTToBzVraoDwCAi782Bi1MaJYoDkWACzqTIjyOjq3qXO.RXFPyhiNp3I0upb2m_woXL5RXa5DeSnqQM_Cz51WfjzW06AjMCkGawxkksX5_RnGO9psADpngHtgHLHh.NhukJisYS.xRF0c89qvIg1YQ_Or5",
      "gamerscore":50,
      "achievementName":"IDKFA",
      "achievementDescription":"Earn the Masteries for all weapon mods.",
      "isSecret":false,
      "hasAppAward":false,
      "hasArtAward":false,
      "contentImageUri":"http://images-eds.xboxlive.com/image?url=8Oaj9Ryq1G1_p3lLnXlsaZgGzAie6Mnu24_PawYuDYIoH77pJ.X5Z.MqQPibUVTcuEgPvjEZKly4WA4TAKGDQzVauJbxbRAyL3UZVASj8B6TAuik0VMYv_XwYTyGlAcQlGU8U34D04zTvSd6o_Giu1HygkG6RAKrr2aamLLZx7fa9PKPqvdj605ByrQsE86Rm6ZpcuXm_qtneMDa5jhbHKfaQd8jAjjZEnwAPJpZ8.0-",
      "bingId":"59bc74e3-9a41-490f-976d-34d93f5910cd",
      "contentTitle":"DOOM",
      "vuiDisplayName":"DOOM",
      "platform":"XboxOne",
      "titleId":"1327376519",
      "description":"unlocked IDKFA in DOOM",
      "date":"2016-08-06T17:45:35.470194Z",
      "hasUgc":false,
      "activityItemType":"Achievement",
      "contentType":"Game",
      "shortDescription":"unlocked an achievement (in Funny Glitches)",
      "ugcCaption":"This took longer than expected to get... Wanted to 100% DOOM and the last update moved the goal post!",
      "itemText":"IDKFA - DOOM",
      "itemImage":"http://images-eds.xboxlive.com/image?url=z951ykn43p4FqWbbFvR2Ec.8vbDhj8G2Xe7JngaTToBzVraoDwCAi782Bi1MaJYoDkWACzqTIjyOjq3qXO.RXFPyhiNp3I0upb2m_woXL5RXa5DeSnqQM_Cz51WfjzW06AjMCkGawxkksX5_RnGO9psADpngHtgHLHh.NhukJisYS.xRF0c89qvIg1YQ_Or5",
      "shareRoot":"userposts.xboxlive.com/users/xuid(2712882632678259)/posts/2712882632678259(0)_XboxLink.6fa0925b-c716-4401-a3a1-56ec6f22d7c4",
      "feedItemId":"avty.xboxlive.com/users/xuid(2712882632678259)/contexts/C00000000F008_2016_08/activity/Activity.201608.06.22.2712882632678259(0)_XboxLink.6fa0925b-c716-4401-a3a1-56ec6f22d7c4",
      "itemRoot":"userposts.xboxlive.com/users/xuid(2712882632678259)/posts/2712882632678259(0)_XboxLink.6fa0925b-c716-4401-a3a1-56ec6f22d7c4",
      "numLikes":2,
      "hasLiked":false,
      "timeline":{
        "timelineId":"3377699720589320",
        "timelineType":"Club",
        "timelineName":"Funny Glitches",
        "timelineImage":"http://images-eds.xboxlive.com/image?url=z951ykn43p4FqWbbFvR2Ec.8vbDhj8G2Xe7JngaTToBrrCmIEEXHC9UNrdJ6P7KIFXxmxGDtE9Vkd62rOpb7JYs2u1RFCJCNAO.uOKjzbKIuccfoUCeh3M2i8uGXe3_F&format=png"
      },
      "authorInfo":{
        "name":"Schief",
        "secondName":"Bill Schiefelbein",
        "imageUrl":"http://images-eds.xboxlive.com/image?url=Hr2eiH8yWKd4q_oa.xgbMn_Nr81xI0exxmgLbuOz_JFlA0OUi9rGwuMNOXkIGIIEK8jlh.jdPkbh2WejTZ_cX6QCWkj6o7jjZoXPcX6CzySCJqQ3s7z5ogvYmLCkBu736DqXP3tK0ISgWEZQOWMb0XS_vuwuqq3BpS3eI9EA0WE-&format=png",
        "color":{
          "primaryColor":"744DA9",
          "secondaryColor":"24153B",
          "tertiaryColor":"4c208a"
        },
        "showAsAvatar":"1",
        "authorType":"User",
        "id":"2712882632678259"
      },
      "userXuid":"2712882632678259"
    },
    {
      "description":"FIRST!! :)",
      "date":"2016-08-06T17:43:32.7284531Z",
      "hasUgc":false,
      "activityItemType":"TextPost",
      "contentType":"System",
      "shortDescription":"said this (in Funny Glitches)",
      "itemText":"FIRST!! :)",
      "shareRoot":"userposts.xboxlive.com/users/xuid(2712882632678259)/posts/2712882632678259(0)_Text.0efd05ed-1d4a-4ac1-b2cd-932b328582d2",
      "feedItemId":"avty.xboxlive.com/users/xuid(2712882632678259)/contexts/C00000000F008_2016_08/activity/Activity.201608.06.22.2712882632678259(0)_Text.0efd05ed-1d4a-4ac1-b2cd-932b328582d2",
      "itemRoot":"userposts.xboxlive.com/users/xuid(2712882632678259)/posts/2712882632678259(0)_Text.0efd05ed-1d4a-4ac1-b2cd-932b328582d2",
      "numLikes":1,
      "hasLiked":false,
      "timeline":{
        "timelineId":"3377699720589320",
        "timelineType":"Club",
        "timelineName":"Funny Glitches",
        "timelineImage":"http://images-eds.xboxlive.com/image?url=z951ykn43p4FqWbbFvR2Ec.8vbDhj8G2Xe7JngaTToBrrCmIEEXHC9UNrdJ6P7KIFXxmxGDtE9Vkd62rOpb7JYs2u1RFCJCNAO.uOKjzbKIuccfoUCeh3M2i8uGXe3_F&format=png"
      },
      "authorInfo":{
        "name":"Schief",
        "secondName":"Bill Schiefelbein",
        "imageUrl":"http://images-eds.xboxlive.com/image?url=Hr2eiH8yWKd4q_oa.xgbMn_Nr81xI0exxmgLbuOz_JFlA0OUi9rGwuMNOXkIGIIEK8jlh.jdPkbh2WejTZ_cX6QCWkj6o7jjZoXPcX6CzySCJqQ3s7z5ogvYmLCkBu736DqXP3tK0ISgWEZQOWMb0XS_vuwuqq3BpS3eI9EA0WE-&format=png",
        "color":{
          "primaryColor":"744DA9",
          "secondaryColor":"24153B",
          "tertiaryColor":"4c208a"
        },
        "showAsAvatar":"1",
        "authorType":"User",
        "id":"2712882632678259"
      },
      "userXuid":"2712882632678259"
    },
    {
      "description":"I'm writing this from the new Xbox (beta) app. To get it, go the Windows Store an search for \"Xbox (beta)\" New features for you to try out:\n\n- Share GameDVR clips edited with any editor\n- Share to Twitter\n- Added support for top PC games, even in friends list status\n- Improved friends suggestions\n- See your Xbox friends in the People app",
      "date":"2016-07-22T22:26:21.5396553Z",
      "hasUgc":true,
      "activityItemType":"TextPost",
      "contentType":"System",
      "shortDescription":"said this (in Funny Glitches)",
      "ugcCaption":"Check it out!",
      "itemText":"I'm writing this from the new Xbox (beta) app. To get it, go the Windows Store an search for \"Xbox (beta)\" New features for you to try out:\n\n- Share GameDVR clips edited with any editor\n- Share to Twitter\n- Added support for top PC games, even in friends list status\n- Improved friends suggestions\n- See your Xbox friends in the People app",
      "shareRoot":"userposts.xboxlive.com/users/xuid(2533274798716603)/posts/2533274798716603(0)_XboxLink.14e53e94-8ac8-4ea1-a545-66fde9c0ff58",
      "feedItemId":"avty.xboxlive.com/users/xuid(2533274798716603)/contexts/C00000000F008_2016_07/activity/Activity.201607.22.22.2533274798716603(0)_XboxLink.14e53e94-8ac8-4ea1-a545-66fde9c0ff58",
      "itemRoot":"userposts.xboxlive.com/users/xuid(2533274798716603)/posts/2533274798716603(0)_XboxLink.14e53e94-8ac8-4ea1-a545-66fde9c0ff58",
      "numComments":12,
      "hasLiked":true,
      "timeline":{
        "timelineId":"3377699720589320",
        "timelineType":"Club",
        "timelineName":"Funny Glitches",
        "timelineImage":"http://images-eds.xboxlive.com/image?url=z951ykn43p4FqWbbFvR2Ec.8vbDhj8G2Xe7JngaTToBrrCmIEEXHC9UNrdJ6P7KIFXxmxGDtE9Vkd62rOpb7JYs2u1RFCJCNAO.uOKjzbKIuccfoUCeh3M2i8uGXe3_F&format=png"
      },
      "authorInfo":{
        "name":"McX",
        "secondName":"Shane McRoberts ✔️",
        "imageUrl":"http://images-eds.xboxlive.com/image?url=Hr2eiH8yWKd4q_oa.xgbMp1X4Xf6SBk6ucd7kFtEgDfOhwb_bn7sgFe4WRZlm6ScDwwVvn6PKINonQFaBZotXScDiBQVtS.MTai8AARHhod_Il5P38tr4MOhLDV.hqW08c_E3lWRQ8v_rMeDPO71L2yPRRzp9apWvgk1ziquIt4-&format=png",
        "color":{
          "primaryColor":"a21025",
          "secondaryColor":"450710",
          "tertiaryColor":"691117"
        },
        "showAsAvatar":"1",
        "authorType":"User",
        "id":"2533274798716603"
      },
      "userXuid":"2533274798716603"
    },
    {
      "description":"test",
      "date":"2016-07-20T17:21:30.3127679Z",
      "hasUgc":false,
      "activityItemType":"TextPost",
      "contentType":"System",
      "shortDescription":"said this (in Funny Glitches)",
      "itemText":"test",
      "shareRoot":"userposts.xboxlive.com/users/xuid(2533274854032107)/posts/2533274854032107(0)_Text.7d4526cd-fedf-4a00-83f8-51c4f0bc9a45",
      "feedItemId":"avty.xboxlive.com/users/xuid(2533274854032107)/contexts/C00000000F008_2016_07/activity/Activity.201607.20.22.2533274854032107(0)_Text.7d4526cd-fedf-4a00-83f8-51c4f0bc9a45",
      "itemRoot":"userposts.xboxlive.com/users/xuid(2533274854032107)/posts/2533274854032107(0)_Text.7d4526cd-fedf-4a00-83f8-51c4f0bc9a45",
      "numLikes":4,
      "numComments":1,
      "hasLiked":false,
      "timeline":{
        "timelineId":"3377699720589320",
        "timelineType":"Club",
        "timelineName":"Funny Glitches",
        "timelineImage":"http://images-eds.xboxlive.com/image?url=z951ykn43p4FqWbbFvR2Ec.8vbDhj8G2Xe7JngaTToBrrCmIEEXHC9UNrdJ6P7KIFXxmxGDtE9Vkd62rOpb7JYs2u1RFCJCNAO.uOKjzbKIuccfoUCeh3M2i8uGXe3_F&format=png"
      },
      "authorInfo":{
        "name":"Dan",
        "secondName":"Dan Howell",
        "imageUrl":"http://images-eds.xboxlive.com/image?url=z951ykn43p4FqWbbFvR2Ec.8vbDhj8G2Xe7JngaTToBrrCmIEEXHC9UNrdJ6P7KIFXxmxGDtE9Vkd62rOpb7JehA8dSapBHnH1CYJpGcvrqx3u3aQ5NMCKRX1WaLAVwB&format=png",
        "color":{
          "primaryColor":"1073d6",
          "secondaryColor":"133157",
          "tertiaryColor":"134e8a"
        },
        "showAsAvatar":"2",
        "authorType":"User",
        "id":"2533274854032107"
      },
      "userXuid":"2533274854032107"
    },
    {
      "achievementScid":"f9d30100-7748-4d1a-b508-524805a3c308",
      "achievementId":"12",
      "achievementType":"Persistent",
      "achievementIcon":"http://images-eds.xboxlive.com/image?url=z951ykn43p4FqWbbFvR2Ec.8vbDhj8G2Xe7JngaTToCfwrabLazdWrL1T6ufMUFMqCnlUMYkot3WIVsRAeG0ikWGJkLl_IaIyI_yFv.5kjMfYpKD1cVD1KqLxSVZhFds3KdZgt4_Nd0cjOYec7oUSli3q7CBtV58tylNNwE4GHy7ipGxcUhz8v7Tc9pi7Jhc",
      "gamerscore":20,
      "achievementName":"Decked Out",
      "achievementDescription":"Collect 50 unlocks for a single hero.",
      "isSecret":false,
      "hasAppAward":false,
      "hasArtAward":false,
      "contentImageUri":"http://images-eds.xboxlive.com/image?url=8Oaj9Ryq1G1_p3lLnXlsaZgGzAie6Mnu24_PawYuDYIoH77pJ.X5Z.MqQPibUVTc6j8bTV3N2m4CBQKAT1cS6lUOQX.ngdSgiLRMdAu32DtXDJDTNMjotH1HxtWkTpxxisX5vcdspTc.RLfoOIexRkLcILiMXecxd3DSG5xLYUXMesqulzS48CpkUqDIMeD7nmwNxcXPOQqToRvmoCjIFFHvgzlmmIh1e23uz5Ki49s-",
      "bingId":"7de69d6f-0da2-44e7-805f-ee0a0ea87d1a",
      "contentTitle":"Overwatch: Origins Edition",
      "vuiDisplayName":"Overwatch",
      "platform":"XboxOne",
      "titleId":"94618376",
      "description":"unlocked Decked Out in Overwatch: Origins Edition",
      "date":"2016-07-18T15:18:11.8817976Z",
      "hasUgc":false,
      "activityItemType":"Achievement",
      "contentType":"Game",
      "shortDescription":"unlocked an achievement (in Funny Glitches)",
      "ugcCaption":"For Bill #becauseachievement",
      "itemText":"Decked Out - Overwatch: Origins Edition",
      "itemImage":"http://images-eds.xboxlive.com/image?url=z951ykn43p4FqWbbFvR2Ec.8vbDhj8G2Xe7JngaTToCfwrabLazdWrL1T6ufMUFMqCnlUMYkot3WIVsRAeG0ikWGJkLl_IaIyI_yFv.5kjMfYpKD1cVD1KqLxSVZhFds3KdZgt4_Nd0cjOYec7oUSli3q7CBtV58tylNNwE4GHy7ipGxcUhz8v7Tc9pi7Jhc",
      "shareRoot":"userposts.xboxlive.com/users/xuid(2533274805799027)/posts/2533274805799027(0)_XboxLink.4027d227-1b45-4f0e-bc2d-4815fa205416",
      "feedItemId":"avty.xboxlive.com/users/xuid(2533274805799027)/contexts/C00000000F008_2016_07/activity/Activity.201607.18.22.2533274805799027(0)_XboxLink.4027d227-1b45-4f0e-bc2d-4815fa205416",
      "itemRoot":"userposts.xboxlive.com/users/xuid(2533274805799027)/posts/2533274805799027(0)_XboxLink.4027d227-1b45-4f0e-bc2d-4815fa205416",
      "numLikes":1,
      "hasLiked":false,
      "timeline":{
        "timelineId":"3377699720589320",
        "timelineType":"Club",
        "timelineName":"Funny Glitches",
        "timelineImage":"http://images-eds.xboxlive.com/image?url=z951ykn43p4FqWbbFvR2Ec.8vbDhj8G2Xe7JngaTToBrrCmIEEXHC9UNrdJ6P7KIFXxmxGDtE9Vkd62rOpb7JYs2u1RFCJCNAO.uOKjzbKIuccfoUCeh3M2i8uGXe3_F&format=png"
      },
      "authorInfo":{
        "name":"hamiltonia",
        "secondName":"Eric Hamilton",
        "imageUrl":"http://images-eds.xboxlive.com/image?url=Hr2eiH8yWKd4q_oa.xgbMmjE_2EQV7f00ZgCYGpktaqg9eam1HqjisSnn6FtEoVe1..i6508XZhJy98SbC2KE.Z3BkdyDmG0yoBtcjf_kqwnToTBJKvGFbD.Nn3YmaUCs5uTE9LwfFXVB7dNhJoIScZujw.bWqrboJeG59D14TY-&format=png",
        "color":{
          "primaryColor":"193e91",
          "secondaryColor":"101836",
          "tertiaryColor":"102c69"
        },
        "showAsAvatar":"1",
        "authorType":"User",
        "id":"2533274805799027"
      },
      "userXuid":"2533274805799027"
    },
    {
      "description":"Anybody playing Overwatch tonight? I have free time after 10PM when the kids are in bed.",
      "date":"2016-07-15T22:14:20.9776999Z",
      "hasUgc":false,
      "activityItemType":"TextPost",
      "contentType":"System",
      "shortDescription":"said this (in Funny Glitches)",
      "itemText":"Anybody playing Overwatch tonight? I have free time after 10PM when the kids are in bed.",
      "shareRoot":"userposts.xboxlive.com/users/xuid(2533274829323135)/posts/2533274829323135(0)_Text.936d0b09-b03c-475c-819a-e95eb49c5dcf",
      "feedItemId":"avty.xboxlive.com/users/xuid(2533274829323135)/contexts/C00000000F008_2016_07/activity/Activity.201607.15.22.2533274829323135(0)_Text.936d0b09-b03c-475c-819a-e95eb49c5dcf",
      "itemRoot":"userposts.xboxlive.com/users/xuid(2533274829323135)/posts/2533274829323135(0)_Text.936d0b09-b03c-475c-819a-e95eb49c5dcf",
      "numComments":1,
      "hasLiked":false,
      "timeline":{
        "timelineId":"3377699720589320",
        "timelineType":"Club",
        "timelineName":"Funny Glitches",
        "timelineImage":"http://images-eds.xboxlive.com/image?url=z951ykn43p4FqWbbFvR2Ec.8vbDhj8G2Xe7JngaTToBrrCmIEEXHC9UNrdJ6P7KIFXxmxGDtE9Vkd62rOpb7JYs2u1RFCJCNAO.uOKjzbKIuccfoUCeh3M2i8uGXe3_F&format=png"
      },
      "authorInfo":{
        "name":"Sir John Walker",
        "secondName":"",
        "imageUrl":"http://images-eds.xboxlive.com/image?url=7OTVnZUMVj4OV2zUUGecWvn3U00nQQLfK7_kwpANogjpnXESvHzeZNqi3EQLYlMbE.W_GchkdZ4U1jyS5yOPO4I4qPfCXic6Tu3erDPhx6BDZ51f2JFshV2TBP5RSmMDNqefpYLIBZHVdEOW_qlKyLm82IRG58XqAtHQpdUYUCc-&format=png",
        "color":{
          "primaryColor":"e31123",
          "secondaryColor":"471010",
          "tertiaryColor":"851414"
        },
        "showAsAvatar":"1",
        "authorType":"User",
        "id":"2533274829323135"
      },
      "userXuid":"2533274829323135"
    },
    {
      "description":"shared an activity",
      "date":"2016-07-15T19:41:55.3272821Z",
      "hasUgc":true,
      "activityItemType":"TextPost",
      "contentType":"System",
      "shortDescription":"shared an activity (in Funny Glitches)",
      "ugcCaption":"",
      "itemText":"Based on your feedback, we've made some adjustments to Warzone Firefight objectives, and also released some fixes for the Tidal Forge canvas. Jump into Halo 5 to download the update!",
      "originalAuthorInfo":{
        "titleId":219630713,
        "titleName":"Halo 5: Guardians",
        "titleImage":"http://images-eds.xboxlive.com/image?url=8Oaj9Ryq1G1_p3lLnXlsaZgGzAie6Mnu24_PawYuDYIoH77pJ.X5Z.MqQPibUVTcF.eDZomSCEW5BsVkS0cEuwsns0BEZCPAiv2Y.B28t3h2vxN03SlzHmFX051beAji1j1PSDusHjIVtuecl5BoKwTJelLM3mfn0E1_f0pcf_QYpT1d9wZqeKRVzpSSjstax8GDVYgZdTK7BzBOaqz6f2TF0O3SiVe1Wb0dY2bztc0-",
        "name":"Halo 5",
        "secondName":"Master Chief 117",
        "imageUrl":"http://images-eds.xboxlive.com/image?url=8Oaj9Ryq1G1_p3lLnXlsaZgGzAie6Mnu24_PawYuDYIoH77pJ.X5Z.MqQPibUVTcS9jr0n8i7LY1tL3U7AiafQSYwhN9iOTVy0My1GO3frP2GG96xdgo_lhOC2BfE.6s&format=png",
        "color":{
          "primaryColor":"107c10",
          "secondaryColor":"102b14",
          "tertiaryColor":"155715"
        },
        "showAsAvatar":"0",
        "authorType":"TitleUser",
        "id":"2535473637074517"
      },
      "originalShortDescription":"said this",
      "shareRoot":"userposts.xboxlive.com/users/xuid(2533274805799027)/posts/2533274805799027(0)_XboxLink.97a8e1db-e2ae-4340-841a-dd9536a87850",
      "feedItemId":"avty.xboxlive.com/users/xuid(2533274805799027)/contexts/C00000000F008_2016_07/activity/Activity.201607.15.22.2533274805799027(0)_XboxLink.97a8e1db-e2ae-4340-841a-dd9536a87850",
      "itemRoot":"userposts.xboxlive.com/users/xuid(2533274805799027)/posts/2533274805799027(0)_XboxLink.97a8e1db-e2ae-4340-841a-dd9536a87850",
      "hasLiked":false,
      "timeline":{
        "timelineId":"3377699720589320",
        "timelineType":"Club",
        "timelineName":"Funny Glitches",
        "timelineImage":"http://images-eds.xboxlive.com/image?url=z951ykn43p4FqWbbFvR2Ec.8vbDhj8G2Xe7JngaTToBrrCmIEEXHC9UNrdJ6P7KIFXxmxGDtE9Vkd62rOpb7JYs2u1RFCJCNAO.uOKjzbKIuccfoUCeh3M2i8uGXe3_F&format=png"
      },
      "authorInfo":{
        "name":"hamiltonia",
        "secondName":"Eric Hamilton",
        "imageUrl":"http://images-eds.xboxlive.com/image?url=Hr2eiH8yWKd4q_oa.xgbMmjE_2EQV7f00ZgCYGpktaqg9eam1HqjisSnn6FtEoVe1..i6508XZhJy98SbC2KE.Z3BkdyDmG0yoBtcjf_kqwnToTBJKvGFbD.Nn3YmaUCs5uTE9LwfFXVB7dNhJoIScZujw.bWqrboJeG59D14TY-&format=png",
        "color":{
          "primaryColor":"193e91",
          "secondaryColor":"101836",
          "tertiaryColor":"102c69"
        },
        "showAsAvatar":"1",
        "authorType":"User",
        "id":"2533274805799027"
      },
      "userXuid":"2533274805799027"
    },
    {
      "postType":"XboxLink",
      "postDetails":null,
      "description":"shared an activity",
      "date":"2016-07-15T15:05:46.254837Z",
      "hasUgc":false,
      "activityItemType":"UserPost",
      "contentType":"System",
      "shortDescription":"shared an activity (in Funny Glitches)",
      "ugcCaption":"",
      "itemText":"posted",
      "originalAuthorInfo":{
        "name":"Major Nelson",
        "secondName":"Larry Hryb",
        "imageUrl":"http://images-eds.xboxlive.com/image?url=Hr2eiH8yWKd4q_oa.xgbMp1X4Xf6SBk6ucd7kFtEgDfOhwb_bn7sgFe4WRZlm6ScVC7Qe_YcIfXNkvFa6C1xXiNzmEw_aSZLjTFNx9DQt6hjrIgPjz.2krETo7TEnVjFkVP5GbX6YnFLvZu1NwhOAx9LhPAc9DTqMPuWr4KrYf4-&format=png",
        "color":{
          "primaryColor":"eb4910",
          "secondaryColor":"692015",
          "tertiaryColor":"ab2d11"
        },
        "showAsAvatar":"1",
        "authorType":"User",
        "id":"2584878536129841"
      },
      "originalShortDescription":"posted",
      "shareRoot":"userposts.xboxlive.com/users/xuid(2533274805799027)/posts/2533274805799027(0)_XboxLink.c3867ab0-87be-4a7a-819d-5e6ffd1f9c8d",
      "feedItemId":"avty.xboxlive.com/users/xuid(2533274805799027)/contexts/C00000000F008_2016_07/activity/Activity.201607.15.22.2533274805799027(0)_XboxLink.c3867ab0-87be-4a7a-819d-5e6ffd1f9c8d",
      "itemRoot":"userposts.xboxlive.com/users/xuid(2533274805799027)/posts/2533274805799027(0)_XboxLink.c3867ab0-87be-4a7a-819d-5e6ffd1f9c8d",
      "hasLiked":false,
      "timeline":{
        "timelineId":"3377699720589320",
        "timelineType":"Club",
        "timelineName":"Funny Glitches",
        "timelineImage":"http://images-eds.xboxlive.com/image?url=z951ykn43p4FqWbbFvR2Ec.8vbDhj8G2Xe7JngaTToBrrCmIEEXHC9UNrdJ6P7KIFXxmxGDtE9Vkd62rOpb7JYs2u1RFCJCNAO.uOKjzbKIuccfoUCeh3M2i8uGXe3_F&format=png"
      },
      "authorInfo":{
        "name":"hamiltonia",
        "secondName":"Eric Hamilton",
        "imageUrl":"http://images-eds.xboxlive.com/image?url=Hr2eiH8yWKd4q_oa.xgbMmjE_2EQV7f00ZgCYGpktaqg9eam1HqjisSnn6FtEoVe1..i6508XZhJy98SbC2KE.Z3BkdyDmG0yoBtcjf_kqwnToTBJKvGFbD.Nn3YmaUCs5uTE9LwfFXVB7dNhJoIScZujw.bWqrboJeG59D14TY-&format=png",
        "color":{
          "primaryColor":"193e91",
          "secondaryColor":"101836",
          "tertiaryColor":"102c69"
        },
        "showAsAvatar":"1",
        "authorType":"User",
        "id":"2533274805799027"
      },
      "userXuid":"2533274805799027"
    },
    {
      "screenshotId":"aa0e6e3c-01aa-46bb-93f3-8cdc13de4208",
      "screenshotThumbnail":"http://images-eds.xboxlive.com/image?url=imbJM3vwvcwNUnV76aRa..5z_aIeRojI3AjLwryZfF164nSwxM9bxsGrCdjbJpWRLxA8QfwvIiF5DQX6iwRUn7rs3xPIRuKsUlOJTz6Fja6FIBax08mlHIrlVEU7jYZpx_4pjIDTxJwVlu_xJswrW4I9IXkzHKWUqMbQ4nYf6z4-",
      "screenshotScid":"b4900100-fd0c-476f-b32e-b74a4ae8f9b2",
      "screenshotName":"",
      "screenshotUri":"http://images-eds.xboxlive.com/image?url=imbJM3vwvcwNUnV76aRa..5z_aIeRojI3AjLwryZfF164nSwxM9bxsGrCdjbJpWRLxA8QfwvIiF5DQX6iwRUn7rs3xPIRuKsUlOJTz6Fja6FIBax08mlHIrlVEU7jYZptVmiNDiYTlS9dTkBOPyo5PQ28dOYAJkyj07PtsoHs6rYgzG18_e43XcWr7WoLEJJ_etpudxK9lOeHqyyipaDh82TD2_1lQgKwtSyd38UGx9tgOmy9T3SZ2bSRxMugVkELYasBexYST.sZf0cMJK5gaQpGsuYEAPVj_Gbb6Qocp3f2omuOQGteMWOB46QMs2PNt43fOLCdhmPjeH4lZL4itec1l0cUEEi6A8cEkwondmOB_teECMushdlLdAEz9rxEC76ssfsaU.j6cQZNUkd4.JTMzj.UWAlIcO16eruOnc-",
      "contentImageUri":"http://images-eds.xboxlive.com/image?url=8Oaj9Ryq1G1_p3lLnXlsaZgGzAie6Mnu24_PawYuDYIoH77pJ.X5Z.MqQPibUVTcto_xGgZXFpv3kns1dMmbHyC1UVfHWXSaUjG9y_ggFfFNG11GqwHtZOBX.Tvsw3eB01M0EGYWoS1XS4XU8P_HfpwQCWJga0e_oDbNxo.6aQKqURb6rtwOvyOJhqjsYL.BBJl7.0oNuD0LVQC9APzouen2LIQSDnXc82vi4atkrho-",
      "bingId":"08c892ec-c72c-4d47-8381-fa93b56e1e0a",
      "contentTitle":"Fallout 4",
      "vuiDisplayName":"Fallout 4",
      "platform":"XboxOne",
      "titleId":"1256782258",
      "description":"shared an activity",
      "date":"2016-07-14T17:40:45.1788968Z",
      "hasUgc":true,
      "activityItemType":"Screenshot",
      "contentType":"Game",
      "shortDescription":"shared an activity (in Funny Glitches)",
      "ugcCaption":"Not really a glitch but still funny",
      "itemText":"Fallout 4",
      "itemImage":"http://images-eds.xboxlive.com/image?url=imbJM3vwvcwNUnV76aRa..5z_aIeRojI3AjLwryZfF164nSwxM9bxsGrCdjbJpWRLxA8QfwvIiF5DQX6iwRUn7rs3xPIRuKsUlOJTz6Fja6FIBax08mlHIrlVEU7jYZptVmiNDiYTlS9dTkBOPyo5PQ28dOYAJkyj07PtsoHs6rYgzG18_e43XcWr7WoLEJJ_etpudxK9lOeHqyyipaDh82TD2_1lQgKwtSyd38UGx9tgOmy9T3SZ2bSRxMugVkELYasBexYST.sZf0cMJK5gaQpGsuYEAPVj_Gbb6Qocp3f2omuOQGteMWOB46QMs2PNt43fOLCdhmPjeH4lZL4itec1l0cUEEi6A8cEkwondmOB_teECMushdlLdAEz9rxEC76ssfsaU.j6cQZNUkd4.JTMzj.UWAlIcO16eruOnc-",
      "originalAuthorInfo":{
        "name":"Kokaza",
        "secondName":"Tej Gidvani",
        "imageUrl":"http://images-eds.xboxlive.com/image?url=Hr2eiH8yWKd4q_oa.xgbMsBMaML4RHmTUbpHkaZTnVU5KRB4bTh8MR86WWWB5GR.YZmO_.ClhIntlrVH9OFXTtUHTfC7ZerixytuSDmu14ij4cy.mFkzpV_EkNzlBYxQWM9z5BwwEYqEI2uhrhnY6b6BIPFc6G._oSJCCAe5sLI-&format=png",
        "color":{
          "primaryColor":"54a81b",
          "secondaryColor":"103610",
          "tertiaryColor":"107c10"
        },
        "showAsAvatar":"1",
        "authorType":"User",
        "id":"2533274808674653"
      },
      "originalShortDescription":"took a screenshot",
      "shareRoot":"userposts.xboxlive.com/users/xuid(2535459900595416)/posts/2535459900595416(0)_XboxLink.5894f921-84a6-4845-8e58-2d0396a1e224",
      "feedItemId":"avty.xboxlive.com/users/xuid(2535459900595416)/contexts/C00000000F008_2016_07/activity/Activity.201607.14.22.2535459900595416(0)_XboxLink.5894f921-84a6-4845-8e58-2d0396a1e224",
      "itemRoot":"userposts.xboxlive.com/users/xuid(2535459900595416)/posts/2535459900595416(0)_XboxLink.5894f921-84a6-4845-8e58-2d0396a1e224",
      "hasLiked":false,
      "timeline":{
        "timelineId":"3377699720589320",
        "timelineType":"Club",
        "timelineName":"Funny Glitches",
        "timelineImage":"http://images-eds.xboxlive.com/image?url=z951ykn43p4FqWbbFvR2Ec.8vbDhj8G2Xe7JngaTToBrrCmIEEXHC9UNrdJ6P7KIFXxmxGDtE9Vkd62rOpb7JYs2u1RFCJCNAO.uOKjzbKIuccfoUCeh3M2i8uGXe3_F&format=png"
      },
      "authorInfo":{
        "name":"Mercy",
        "secondName":"W̞̣̦̠̻̰̞̾̑́̈͌̍͊̌i̘̰̻̮̲͈͆͐̃̂l̥͙̯̦̐͊̑͆͌l̻͇͇̦͙̘̏͊ M͎̣̐̌ͧ͑ͩͧȁ̳̻̦̮̘ͩ̆ͦ̄̆̾͐͊y̞̓n͇̙͓ͯ̍͊è̺̘̟͉̎͂̓͋̇̽͆s͍̖̓̌͑",
        "imageUrl":"http://images-eds.xboxlive.com/image?url=z951ykn43p4FqWbbFvR2Ec.8vbDhj8G2Xe7JngaTToBrrCmIEEXHC9UNrdJ6P7KId46ktn4AUxk.ghIPeRshxUhzbXZi.xl4BEGXOOaer7WNXv5G.iy8E8TNOw8bdA9q&format=png",
        "color":{
          "primaryColor":"148282",
          "secondaryColor":"103033",
          "tertiaryColor":"13585E"
        },
        "showAsAvatar":"0",
        "authorType":"User",
        "id":"2535459900595416"
      },
      "userXuid":"2535459900595416",
      "viewCount":2
    },
    {
      "clipId":"0d662955-46c7-4a60-8e37-2fa4f40adbef",
      "clipThumbnail":"http://images-eds.xboxlive.com/image?url=dfiDK7JY.OOtUOcd3g3Q061.qHX31naDfXenF7vjCNTp2Ks4dkt0RwgUQmCd5j6l7w_DyXTTtCXCO6mleEO.QSOwso3d1vrmr8UT8MPQUipIscEbGL_ofAkdBShDQyCQA4CpqTuy6FjLDMVzJOMk5RIHz.AtaCDEecc6Q4HDXc_pWv4FaxsO.Km8LzQRU2JG",
      "downloadUri":"http://gameclipscontent-d3009.xboxlive.com/000901fcc2b79cd8-0d662955-46c7-4a60-8e37-2fa4f40adbef/GameClip-Original.MP4?sv=2014-02-14&sr=c&sig=Lx8S09%2BDQTTRG2H%2BOBTrWep511b15KbYb3s0c6NloQo%3D&st=2016-08-08T05%3A24%3A45Z&se=2016-08-08T06%3A29%3A45Z&sp=r&__gda__=1470637785_6e6fe4399f36a07cd74132f7f5d0e4e8",
      "clipName":"",
      "clipCaption":"",
      "clipScid":"05c20100-6e60-45d5-878a-4903149e11ae",
      "dateRecorded":"2016-07-09T01:59:35Z",
      "viewCount":11,
      "contentImageUri":"http://images-eds.xboxlive.com/image?url=8Oaj9Ryq1G1_p3lLnXlsaZgGzAie6Mnu24_PawYuDYIoH77pJ.X5Z.MqQPibUVTcRY.yavzo7nYP0X88I63UeJxs_ICOvM1iX20FQwMAmM.YRVOrn23437GPAzBhEYTFC0_V4yQM7_c7EN6Ek0somPozFiBI6Ud631szY1pg381GcxwDlhSG5yh2V3.yXZqqJpk4ncMZRoyHvxjYP53uOdLJ2lbW8yCvm.Cz6e8uIgM-",
      "bingId":"582e7bcc-11bc-4702-ab1b-b31566f8e327",
      "contentTitle":"Minecraft: Xbox One Edition",
      "vuiDisplayName":"Minecraft",
      "platform":"XboxOne",
      "titleId":"345903534",
      "description":"made a game clip in Minecraft: Xbox One Edition",
      "date":"2016-07-14T01:08:50.7216731Z",
      "hasUgc":true,
      "activityItemType":"GameDVR",
      "contentType":"Game",
      "shortDescription":"made a clip (in Funny Glitches)",
      "ugcCaption":"I think I found an alien",
      "itemText":"Minecraft: Xbox One Edition",
      "itemImage":"http://images-eds.xboxlive.com/image?url=dfiDK7JY.OOtUOcd3g3Q061.qHX31naDfXenF7vjCNTp2Ks4dkt0RwgUQmCd5j6l7w_DyXTTtCXCO6mleEO.QSOwso3d1vrmr8UT8MPQUipIscEbGL_ofAkdBShDQyCQA4CpqTuy6FjLDMVzJOMk5RIHz.AtaCDEecc6Q4HDXc_pWv4FaxsO.Km8LzQRU2JG",
      "shareRoot":"userposts.xboxlive.com/users/xuid(2535459900595416)/posts/2535459900595416(0)_XboxLink.0da6b487-5ce4-4fb8-92a7-cc01d2979046",
      "feedItemId":"avty.xboxlive.com/users/xuid(2535459900595416)/contexts/C00000000F008_2016_07/activity/Activity.201607.14.22.2535459900595416(0)_XboxLink.0da6b487-5ce4-4fb8-92a7-cc01d2979046",
      "itemRoot":"userposts.xboxlive.com/users/xuid(2535459900595416)/posts/2535459900595416(0)_XboxLink.0da6b487-5ce4-4fb8-92a7-cc01d2979046",
      "numLikes":1,
      "hasLiked":false,
      "timeline":{
        "timelineId":"3377699720589320",
        "timelineType":"Club",
        "timelineName":"Funny Glitches",
        "timelineImage":"http://images-eds.xboxlive.com/image?url=z951ykn43p4FqWbbFvR2Ec.8vbDhj8G2Xe7JngaTToBrrCmIEEXHC9UNrdJ6P7KIFXxmxGDtE9Vkd62rOpb7JYs2u1RFCJCNAO.uOKjzbKIuccfoUCeh3M2i8uGXe3_F&format=png"
      },
      "authorInfo":{
        "name":"Mercy",
        "secondName":"W̞̣̦̠̻̰̞̾̑́̈͌̍͊̌i̘̰̻̮̲͈͆͐̃̂l̥͙̯̦̐͊̑͆͌l̻͇͇̦͙̘̏͊ M͎̣̐̌ͧ͑ͩͧȁ̳̻̦̮̘ͩ̆ͦ̄̆̾͐͊y̞̓n͇̙͓ͯ̍͊è̺̘̟͉̎͂̓͋̇̽͆s͍̖̓̌͑",
        "imageUrl":"http://images-eds.xboxlive.com/image?url=z951ykn43p4FqWbbFvR2Ec.8vbDhj8G2Xe7JngaTToBrrCmIEEXHC9UNrdJ6P7KId46ktn4AUxk.ghIPeRshxUhzbXZi.xl4BEGXOOaer7WNXv5G.iy8E8TNOw8bdA9q&format=png",
        "color":{
          "primaryColor":"148282",
          "secondaryColor":"103033",
          "tertiaryColor":"13585E"
        },
        "showAsAvatar":"0",
        "authorType":"User",
        "id":"2535459900595416"
      },
      "userXuid":"2535459900595416"
    },
    {
      "description":"Life Hack: type format C:\\ on your computer to increase storage space",
      "date":"2016-07-13T06:38:03.2524305Z",
      "hasUgc":false,
      "activityItemType":"TextPost",
      "contentType":"System",
      "shortDescription":"said this (in Funny Glitches)",
      "itemText":"Life Hack: type format C:\\ on your computer to increase storage space",
      "shareRoot":"userposts.xboxlive.com/users/xuid(2533274829323135)/posts/2533274829323135(0)_Text.760c46f3-ad60-4c8a-a474-ad1de9450654",
      "feedItemId":"avty.xboxlive.com/users/xuid(2533274829323135)/contexts/C00000000F008_2016_07/activity/Activity.201607.13.22.2533274829323135(0)_Text.760c46f3-ad60-4c8a-a474-ad1de9450654",
      "itemRoot":"userposts.xboxlive.com/users/xuid(2533274829323135)/posts/2533274829323135(0)_Text.760c46f3-ad60-4c8a-a474-ad1de9450654",
      "numLikes":1,
      "hasLiked":false,
      "timeline":{
        "timelineId":"3377699720589320",
        "timelineType":"Club",
        "timelineName":"Funny Glitches",
        "timelineImage":"http://images-eds.xboxlive.com/image?url=z951ykn43p4FqWbbFvR2Ec.8vbDhj8G2Xe7JngaTToBrrCmIEEXHC9UNrdJ6P7KIFXxmxGDtE9Vkd62rOpb7JYs2u1RFCJCNAO.uOKjzbKIuccfoUCeh3M2i8uGXe3_F&format=png"
      },
      "authorInfo":{
        "name":"Sir John Walker",
        "secondName":"",
        "imageUrl":"http://images-eds.xboxlive.com/image?url=7OTVnZUMVj4OV2zUUGecWvn3U00nQQLfK7_kwpANogjpnXESvHzeZNqi3EQLYlMbE.W_GchkdZ4U1jyS5yOPO4I4qPfCXic6Tu3erDPhx6BDZ51f2JFshV2TBP5RSmMDNqefpYLIBZHVdEOW_qlKyLm82IRG58XqAtHQpdUYUCc-&format=png",
        "color":{
          "primaryColor":"e31123",
          "secondaryColor":"471010",
          "tertiaryColor":"851414"
        },
        "showAsAvatar":"1",
        "authorType":"User",
        "id":"2533274829323135"
      },
      "userXuid":"2533274829323135"
    },
    {
      "screenshotId":"100c2f91-96b3-4ffa-979a-6b48223d5e7f",
      "screenshotThumbnail":"http://images-eds.xboxlive.com/image?url=imbJM3vwvcwNUnV76aRa.8bltBnEcS694WQifer1C4WoPTG8ZuHcgyuwYJQXrchD1tG60CXrq1yQQe.9j6wT7RGTfiNSeS3JAIjl4oM3vqw9Wu55ebSsmcSJuhC9i948r1WvcbRxfC1JwOQzJhNlnhsSiS7_bZrfN59esTLzI2I-",
      "screenshotScid":"80f60100-215b-4f08-8c68-2b353e5e3f4b",
      "screenshotName":"",
      "screenshotUri":"http://images-eds.xboxlive.com/image?url=imbJM3vwvcwNUnV76aRa.8bltBnEcS694WQifer1C4WoPTG8ZuHcgyuwYJQXrchD1tG60CXrq1yQQe.9j6wT7RGTfiNSeS3JAIjl4oM3vqw9Wu55ebSsmcSJuhC9i948VhLBAwt1C.wxL7ixCEq8WczQY2EXAr7M0UE5Dxc0EHU3YOqVS8KskW4vwXVMRTu1qDvIS2xRXKDct1r.2Wo6YykXiYbQGRwfogS109JmW4PPYTYn5u9xYVpGBoZogfzisyEZPd1Mu.g6Yrx29Nvst8jLsRsAquSys9YSzMesvKij_KSG9H4sar7QL4roXQRFixyMi711GfblSgSCJmEOKXQ2.4m89t6uG6mEMYlGJTDzlB09MwmX.2u1rzaMfd4SvvwJjacGd6G8W90_M6flHBR36hfGCXdnGoCW1awg5dA-",
      "contentImageUri":"http://images-eds.xboxlive.com/image?url=8Oaj9Ryq1G1_p3lLnXlsaZgGzAie6Mnu24_PawYuDYIoH77pJ.X5Z.MqQPibUVTcYyT3KivwvSkmDeOtfWHbfvsHJ9C1ABg.gtELYM.Dwv2YzJ.dYvCtdye4FbmkSFCYMEtNYuGlzPSKyZIcH0yRA19np8TVDKp8i7ciW1y7.U5SD6Q8amklW_bOX3Zk2jx3GD42GpMEeTYg2h6ef2ZLbsqC7wK6WT5V9XpPKomTCkM-",
      "bingId":"3f752cfc-0eef-45aa-9f52-a7123c5a5753",
      "contentTitle":"Rise of the Tomb Raider",
      "vuiDisplayName":"Rise of the Tomb Raider",
      "platform":"XboxOne",
      "titleId":"1046363979",
      "description":"took a screenshot in Rise of the Tomb Raider",
      "date":"2016-07-13T05:46:45.287565Z",
      "hasUgc":true,
      "activityItemType":"Screenshot",
      "contentType":"Game",
      "shortDescription":"took a screenshot (in Funny Glitches)",
      "ugcCaption":"I loved this part of the game. I DIDNT love the fact that the game froze and I had to reload my save :-(",
      "itemText":"Rise of the Tomb Raider",
      "itemImage":"http://images-eds.xboxlive.com/image?url=imbJM3vwvcwNUnV76aRa.8bltBnEcS694WQifer1C4WoPTG8ZuHcgyuwYJQXrchD1tG60CXrq1yQQe.9j6wT7RGTfiNSeS3JAIjl4oM3vqw9Wu55ebSsmcSJuhC9i948VhLBAwt1C.wxL7ixCEq8WczQY2EXAr7M0UE5Dxc0EHU3YOqVS8KskW4vwXVMRTu1qDvIS2xRXKDct1r.2Wo6YykXiYbQGRwfogS109JmW4PPYTYn5u9xYVpGBoZogfzisyEZPd1Mu.g6Yrx29Nvst8jLsRsAquSys9YSzMesvKij_KSG9H4sar7QL4roXQRFixyMi711GfblSgSCJmEOKXQ2.4m89t6uG6mEMYlGJTDzlB09MwmX.2u1rzaMfd4SvvwJjacGd6G8W90_M6flHBR36hfGCXdnGoCW1awg5dA-",
      "shareRoot":"userposts.xboxlive.com/users/xuid(2533274829323135)/posts/2533274829323135(0)_XboxLink.44ddd93a-dec3-45b4-8016-4362abbea79e",
      "feedItemId":"avty.xboxlive.com/users/xuid(2533274829323135)/contexts/C00000000F008_2016_07/activity/Activity.201607.13.22.2533274829323135(0)_XboxLink.44ddd93a-dec3-45b4-8016-4362abbea79e",
      "itemRoot":"userposts.xboxlive.com/users/xuid(2533274829323135)/posts/2533274829323135(0)_XboxLink.44ddd93a-dec3-45b4-8016-4362abbea79e",
      "hasLiked":false,
      "timeline":{
        "timelineId":"3377699720589320",
        "timelineType":"Club",
        "timelineName":"Funny Glitches",
        "timelineImage":"http://images-eds.xboxlive.com/image?url=z951ykn43p4FqWbbFvR2Ec.8vbDhj8G2Xe7JngaTToBrrCmIEEXHC9UNrdJ6P7KIFXxmxGDtE9Vkd62rOpb7JYs2u1RFCJCNAO.uOKjzbKIuccfoUCeh3M2i8uGXe3_F&format=png"
      },
      "authorInfo":{
        "name":"Sir John Walker",
        "secondName":"",
        "imageUrl":"http://images-eds.xboxlive.com/image?url=7OTVnZUMVj4OV2zUUGecWvn3U00nQQLfK7_kwpANogjpnXESvHzeZNqi3EQLYlMbE.W_GchkdZ4U1jyS5yOPO4I4qPfCXic6Tu3erDPhx6BDZ51f2JFshV2TBP5RSmMDNqefpYLIBZHVdEOW_qlKyLm82IRG58XqAtHQpdUYUCc-&format=png",
        "color":{
          "primaryColor":"e31123",
          "secondaryColor":"471010",
          "tertiaryColor":"851414"
        },
        "showAsAvatar":"1",
        "authorType":"User",
        "id":"2533274829323135"
      },
      "userXuid":"2533274829323135",
      "viewCount":3
    },
    {
      "description":"Wondering about my next game to pick up: Division vs Overwatch? Do you have any insights?",
      "date":"2016-07-12T08:12:28.2650132Z",
      "hasUgc":false,
      "activityItemType":"TextPost",
      "contentType":"System",
      "shortDescription":"said this (in Funny Glitches)",
      "itemText":"Wondering about my next game to pick up: Division vs Overwatch? Do you have any insights?",
      "shareRoot":"userposts.xboxlive.com/users/xuid(2533274829323135)/posts/2533274829323135(0)_Text.257f565f-b59c-4f85-a70b-65d6875ab729",
      "feedItemId":"avty.xboxlive.com/users/xuid(2533274829323135)/contexts/C00000000F008_2016_07/activity/Activity.201607.12.22.2533274829323135(0)_Text.257f565f-b59c-4f85-a70b-65d6875ab729",
      "itemRoot":"userposts.xboxlive.com/users/xuid(2533274829323135)/posts/2533274829323135(0)_Text.257f565f-b59c-4f85-a70b-65d6875ab729",
      "numLikes":1,
      "numComments":1,
      "hasLiked":false,
      "timeline":{
        "timelineId":"3377699720589320",
        "timelineType":"Club",
        "timelineName":"Funny Glitches",
        "timelineImage":"http://images-eds.xboxlive.com/image?url=z951ykn43p4FqWbbFvR2Ec.8vbDhj8G2Xe7JngaTToBrrCmIEEXHC9UNrdJ6P7KIFXxmxGDtE9Vkd62rOpb7JYs2u1RFCJCNAO.uOKjzbKIuccfoUCeh3M2i8uGXe3_F&format=png"
      },
      "authorInfo":{
        "name":"Sir John Walker",
        "secondName":"",
        "imageUrl":"http://images-eds.xboxlive.com/image?url=7OTVnZUMVj4OV2zUUGecWvn3U00nQQLfK7_kwpANogjpnXESvHzeZNqi3EQLYlMbE.W_GchkdZ4U1jyS5yOPO4I4qPfCXic6Tu3erDPhx6BDZ51f2JFshV2TBP5RSmMDNqefpYLIBZHVdEOW_qlKyLm82IRG58XqAtHQpdUYUCc-&format=png",
        "color":{
          "primaryColor":"e31123",
          "secondaryColor":"471010",
          "tertiaryColor":"851414"
        },
        "showAsAvatar":"1",
        "authorType":"User",
        "id":"2533274829323135"
      },
      "userXuid":"2533274829323135"
    },
    {
      "screenshotId":"6c326aa2-47eb-40f5-a658-a1fce4566dd4",
      "screenshotThumbnail":"http://images-eds.xboxlive.com/image?url=imbJM3vwvcwNUnV76aRa.8bltBnEcS694WQifer1C4WoPTG8ZuHcgyuwYJQXrchDg1UiIvr_Trxg4tB05yYXhBGWcLL1IiUoDVKnew7tD4zwN7C2fXWVFFc39jLhzWTWuNrbU3.Cj74SqTn6bNsw4WSI.bwNyHaAiGlYlbv0..w-",
      "screenshotScid":"80f60100-215b-4f08-8c68-2b353e5e3f4b",
      "screenshotName":"",
      "screenshotUri":"http://images-eds.xboxlive.com/image?url=imbJM3vwvcwNUnV76aRa.8bltBnEcS694WQifer1C4WoPTG8ZuHcgyuwYJQXrchDg1UiIvr_Trxg4tB05yYXhBGWcLL1IiUoDVKnew7tD4zwN7C2fXWVFFc39jLhzWTWLb9HwXqw2jbhpya16JrG0XYoZFJZMxub6nPDWvJssmQmQxVMfsGbEuzg9Sb.wJQR2vWAKpRKzoxKlxD8L30IMCfmOSON8sSNNW1Si3Z9ILyqDzncHk8V2NMIEU4tIuwICN06udlFovvo4MxPH5ZAGaRcrrZpZe8u7LU.UmgjjMzNJ_vG_A.J4ByE3jF_SELMENuWCki5.0wSTd_NtOTq0fpD3VLAaECa2tAKpqe9Z.O8O8VQ0BFgyx4vs5AclYPAnB7MoLmEMc8kmHlAnSUKnVvKhHZmm7LcOWieFOWjvLc-",
      "contentImageUri":"http://images-eds.xboxlive.com/image?url=8Oaj9Ryq1G1_p3lLnXlsaZgGzAie6Mnu24_PawYuDYIoH77pJ.X5Z.MqQPibUVTcYyT3KivwvSkmDeOtfWHbfvsHJ9C1ABg.gtELYM.Dwv2YzJ.dYvCtdye4FbmkSFCYMEtNYuGlzPSKyZIcH0yRA19np8TVDKp8i7ciW1y7.U5SD6Q8amklW_bOX3Zk2jx3GD42GpMEeTYg2h6ef2ZLbsqC7wK6WT5V9XpPKomTCkM-",
      "bingId":"3f752cfc-0eef-45aa-9f52-a7123c5a5753",
      "contentTitle":"Rise of the Tomb Raider",
      "vuiDisplayName":"Rise of the Tomb Raider",
      "platform":"XboxOne",
      "titleId":"1046363979",
      "description":"took a screenshot in Rise of the Tomb Raider",
      "date":"2016-07-12T07:14:34.9603764Z",
      "hasUgc":true,
      "activityItemType":"Screenshot",
      "contentType":"Game",
      "shortDescription":"took a screenshot (in Funny Glitches)",
      "ugcCaption":"Human hunting",
      "itemText":"Rise of the Tomb Raider",
      "itemImage":"http://images-eds.xboxlive.com/image?url=imbJM3vwvcwNUnV76aRa.8bltBnEcS694WQifer1C4WoPTG8ZuHcgyuwYJQXrchDg1UiIvr_Trxg4tB05yYXhBGWcLL1IiUoDVKnew7tD4zwN7C2fXWVFFc39jLhzWTWLb9HwXqw2jbhpya16JrG0XYoZFJZMxub6nPDWvJssmQmQxVMfsGbEuzg9Sb.wJQR2vWAKpRKzoxKlxD8L30IMCfmOSON8sSNNW1Si3Z9ILyqDzncHk8V2NMIEU4tIuwICN06udlFovvo4MxPH5ZAGaRcrrZpZe8u7LU.UmgjjMzNJ_vG_A.J4ByE3jF_SELMENuWCki5.0wSTd_NtOTq0fpD3VLAaECa2tAKpqe9Z.O8O8VQ0BFgyx4vs5AclYPAnB7MoLmEMc8kmHlAnSUKnVvKhHZmm7LcOWieFOWjvLc-",
      "shareRoot":"userposts.xboxlive.com/users/xuid(2533274829323135)/posts/2533274829323135(0)_XboxLink.ab571bca-3686-4551-8bd6-48e839dbf68b",
      "feedItemId":"avty.xboxlive.com/users/xuid(2533274829323135)/contexts/C00000000F008_2016_07/activity/Activity.201607.12.22.2533274829323135(0)_XboxLink.ab571bca-3686-4551-8bd6-48e839dbf68b",
      "itemRoot":"userposts.xboxlive.com/users/xuid(2533274829323135)/posts/2533274829323135(0)_XboxLink.ab571bca-3686-4551-8bd6-48e839dbf68b",
      "hasLiked":false,
      "timeline":{
        "timelineId":"3377699720589320",
        "timelineType":"Club",
        "timelineName":"Funny Glitches",
        "timelineImage":"http://images-eds.xboxlive.com/image?url=z951ykn43p4FqWbbFvR2Ec.8vbDhj8G2Xe7JngaTToBrrCmIEEXHC9UNrdJ6P7KIFXxmxGDtE9Vkd62rOpb7JYs2u1RFCJCNAO.uOKjzbKIuccfoUCeh3M2i8uGXe3_F&format=png"
      },
      "authorInfo":{
        "name":"Sir John Walker",
        "secondName":"",
        "imageUrl":"http://images-eds.xboxlive.com/image?url=7OTVnZUMVj4OV2zUUGecWvn3U00nQQLfK7_kwpANogjpnXESvHzeZNqi3EQLYlMbE.W_GchkdZ4U1jyS5yOPO4I4qPfCXic6Tu3erDPhx6BDZ51f2JFshV2TBP5RSmMDNqefpYLIBZHVdEOW_qlKyLm82IRG58XqAtHQpdUYUCc-&format=png",
        "color":{
          "primaryColor":"e31123",
          "secondaryColor":"471010",
          "tertiaryColor":"851414"
        },
        "showAsAvatar":"1",
        "authorType":"User",
        "id":"2533274829323135"
      },
      "userXuid":"2533274829323135",
      "viewCount":2
    },
    {
      "clipId":"5fd23c6f-27c6-4da4-aced-df6bcf29c056",
      "clipThumbnail":"http://images-eds.xboxlive.com/image?url=dfiDK7JY.OOtUOcd3g3Q061.qHX31naDfXenF7vjCNTp2Ks4dkt0RwgUQmCd5j6lpN8fsCaH3bgbNoQsfBCvW5qB05T2.GRYMhosNqn8ZgxwBtXyGpNCSqm.ew4fZZQzrjGavI_LIR6QkoIqLCDC.94.5ioP9XriDqjxoNzoPJ_nweYKAf8OlV69vmGODurv",
      "downloadUri":"http://gameclipscontent-d3009.xboxlive.com/0009000003cb02eb-5fd23c6f-27c6-4da4-aced-df6bcf29c056/GameClip-Original.MP4?sv=2014-02-14&sr=c&sig=yQ3Q2iT6KEupeySRE8vyIrZSk0FVzLP7cyTBrYmedJY%3D&st=2016-08-08T04%3A37%3A38Z&se=2016-08-08T05%3A42%3A38Z&sp=r&__gda__=1470634958_3097c451f15ff55d9271fd142bdc1301",
      "clipName":"",
      "clipCaption":"",
      "clipScid":"f9d30100-7748-4d1a-b508-524805a3c308",
      "dateRecorded":"2016-07-07T04:16:58Z",
      "viewCount":13,
      "contentImageUri":"http://images-eds.xboxlive.com/image?url=8Oaj9Ryq1G1_p3lLnXlsaZgGzAie6Mnu24_PawYuDYIoH77pJ.X5Z.MqQPibUVTc6j8bTV3N2m4CBQKAT1cS6lUOQX.ngdSgiLRMdAu32DtXDJDTNMjotH1HxtWkTpxxisX5vcdspTc.RLfoOIexRkLcILiMXecxd3DSG5xLYUXMesqulzS48CpkUqDIMeD7nmwNxcXPOQqToRvmoCjIFFHvgzlmmIh1e23uz5Ki49s-",
      "bingId":"7de69d6f-0da2-44e7-805f-ee0a0ea87d1a",
      "contentTitle":"Overwatch: Origins Edition",
      "vuiDisplayName":"Overwatch",
      "platform":"XboxOne",
      "titleId":"94618376",
      "description":"made a game clip in Overwatch: Origins Edition",
      "date":"2016-07-11T21:36:39.1273498Z",
      "hasUgc":true,
      "activityItemType":"GameDVR",
      "contentType":"Game",
      "shortDescription":"made a clip (in Funny Glitches)",
      "ugcCaption":"justi-",
      "itemText":"Overwatch: Origins Edition",
      "itemImage":"http://images-eds.xboxlive.com/image?url=dfiDK7JY.OOtUOcd3g3Q061.qHX31naDfXenF7vjCNTp2Ks4dkt0RwgUQmCd5j6lpN8fsCaH3bgbNoQsfBCvW5qB05T2.GRYMhosNqn8ZgxwBtXyGpNCSqm.ew4fZZQzrjGavI_LIR6QkoIqLCDC.94.5ioP9XriDqjxoNzoPJ_nweYKAf8OlV69vmGODurv",
      "shareRoot":"userposts.xboxlive.com/users/xuid(2533274854032107)/posts/2533274854032107(0)_XboxLink.477df81d-2f73-4818-924e-e5dec9743574",
      "feedItemId":"avty.xboxlive.com/users/xuid(2533274854032107)/contexts/C00000000F008_2016_07/activity/Activity.201607.11.22.2533274854032107(0)_XboxLink.477df81d-2f73-4818-924e-e5dec9743574",
      "itemRoot":"userposts.xboxlive.com/users/xuid(2533274854032107)/posts/2533274854032107(0)_XboxLink.477df81d-2f73-4818-924e-e5dec9743574",
      "numLikes":7,
      "numComments":4,
      "hasLiked":false,
      "timeline":{
        "timelineId":"3377699720589320",
        "timelineType":"Club",
        "timelineName":"Funny Glitches",
        "timelineImage":"http://images-eds.xboxlive.com/image?url=z951ykn43p4FqWbbFvR2Ec.8vbDhj8G2Xe7JngaTToBrrCmIEEXHC9UNrdJ6P7KIFXxmxGDtE9Vkd62rOpb7JYs2u1RFCJCNAO.uOKjzbKIuccfoUCeh3M2i8uGXe3_F&format=png"
      },
      "authorInfo":{
        "name":"Dan",
        "secondName":"Dan Howell",
        "imageUrl":"http://images-eds.xboxlive.com/image?url=z951ykn43p4FqWbbFvR2Ec.8vbDhj8G2Xe7JngaTToBrrCmIEEXHC9UNrdJ6P7KIFXxmxGDtE9Vkd62rOpb7JehA8dSapBHnH1CYJpGcvrqx3u3aQ5NMCKRX1WaLAVwB&format=png",
        "color":{
          "primaryColor":"1073d6",
          "secondaryColor":"133157",
          "tertiaryColor":"134e8a"
        },
        "showAsAvatar":"2",
        "authorType":"User",
        "id":"2533274854032107"
      },
      "userXuid":"2533274854032107"
    }
  ],
  "pollingToken":"8587310746043166748",
  "pollingIntervalSeconds":"900",
  "contToken":"636038697991273498"
}