{
  "Results":[
    {
      "ProductFamilyName":"Games",
      "Products":[
        {
          "Height":1080,
          "ImageType":"BoxArt",
          "Width":1080,
          "PlatformProperties":[

          ],
          "Icon":"https://dlassets-pvt-ssl.xboxlive.com/private/content/b6e4ed98-a336-419b-a86e-71b13170f81b/ff1c6672-b171-47d8-b1eb-40c02b484464/4ba4397e-7447-40b8-a636-3ad3ec94018b.png?__gda__=1468256794_6068632f4b551210db663c17887f151a",
          "ProductId":"C4101T57HHMH",
          "Type":"Game",
          "Title":"Wildfire"
        }
      ]
    }
  ],
  "TotalResultCount":1
}