{
  "ImpressionGuid": "ba45aa52-7f08-4de0-a9f0-644c4a90f6d8",
  "Items": [
    {
      "MediaGroup": 1,
      "MediaItemType": 23,
      "ID": "66acd000-77fe-1000-9115-d80258410b14",
      "Name": "Crimson Dragon",
      "Description": "(Online Interactions Not Rated by the ESRB) Several generations have passed since the human colonists of Planet Draco lost contact with Earth, and they have reached an uneasy truce with the native dragons. Now they face the return of an old threat, a colossal destroyer known as the White Phantom. In \"Crimson Dragon,\" use Kinect to control your dragon and fight off the violent enemy life forms. Teach your dragon new skills, and train it to become strong enough to face combat in harder missions. Bring your trained dragon online to take on missions in co-op. Now, embark on your journey to Planet Draco!",
      "ReducedDescription": "Several generations have passed since the human colonists of Planet Draco lost contact with Earth. Now they face the return of an old threat, a colossal destroyer known as the White Phantom. In \"Crimson Dragon,\" use Kinect to control your dragon and fight off the violent enemy life forms. Teach your dragon new skills, and train it to face combat in harder missions. Bring your trained dragon online to take on missions in co-op. ",
      "ReducedName": "Crimson Dragon",
      "ReleaseDate": "\/Date(26192160000000)\/",
      "ItemTypeId": 23,
      "TitleId": "1480657684",
      "UserRatingCount": 3734,
      "VuiDisplayName": "Crimson Dragon",
      "Genres": [
        {
          "ID": 3011,
          "Name": "Shooter",
          "ParentId": 3027,
          "SystemId": 3000
        },
        {
          "ID": 3028,
          "Name": "Kinect",
          "ParentId": 3027,
          "SystemId": 3000
        }
      ],
      "DeveloperName": "Grounding Inc. \/ LAND HO! CO., LTD",
      "Images": [
        {
          "Height": 300,
          "Purpose": "BoxArt",
          "Url": "http:\/\/download.xbox.com\/content\/images\/66acd000-77fe-1000-9115-d80258410b14\/1033\/boxartlg.jpg",
          "Width": 219
        },
        {
          "Height": 64,
          "Purpose": "Thumbnail",
          "Url": "http:\/\/download.xbox.com\/content\/images\/66acd000-77fe-1000-9115-d80258410b14\/1033\/tile.png",
          "Width": 64
        },
        {
          "Height": 720,
          "Purpose": "WideBackgroundImage",
          "Url": "http:\/\/download.xbox.com\/content\/images\/66acd000-77fe-1000-9115-d80258410b14\/1033\/background.jpg",
          "Width": 1280
        },
        {
          "Height": 120,
          "Purpose": "BoxArt",
          "Url": "http:\/\/download.xbox.com\/content\/images\/66acd000-77fe-1000-9115-d80258410b14\/1033\/boxartsm.jpg",
          "Width": 85
        },
        {
          "Height": 95,
          "Purpose": "SellImage",
          "Url": "http:\/\/download.xbox.com\/content\/images\/66acd000-77fe-1000-9115-d80258410b14\/1033\/banner.png",
          "Width": 420
        }
      ],
      "PublisherName": "Xbox LIVE Arcade",
      "Updated": "\/Date(1343367569540)\/",
      "OfferInstances": [
      ],
      "ParentItems": [
        {
          "ID": "66acd000-77fe-1000-9115-d80258410b14",
          "ReducedName": "Crimson Dragon",
          "ParentPriorityOrder": 0
        }
      ],
      "RatingId": "30",
      "Slideshows": [
        {
          "Images": [
            {
              "Height": 562,
              "Order": 1,
              "Purpose": "Slideshow",
              "Url": "http:\/\/download.xbox.com\/content\/images\/66acd000-77fe-1000-9115-d80258410b14\/1033\/screenlg1.jpg",
              "Width": 1000
            },
            {
              "Height": 562,
              "Order": 2,
              "Purpose": "Slideshow",
              "Url": "http:\/\/download.xbox.com\/content\/images\/66acd000-77fe-1000-9115-d80258410b14\/1033\/screenlg2.jpg",
              "Width": 1000
            },
            {
              "Height": 562,
              "Order": 3,
              "Purpose": "Slideshow",
              "Url": "http:\/\/download.xbox.com\/content\/images\/66acd000-77fe-1000-9115-d80258410b14\/1033\/screenlg3.jpg",
              "Width": 1000
            },
            {
              "Height": 562,
              "Order": 4,
              "Purpose": "Slideshow",
              "Url": "http:\/\/download.xbox.com\/content\/images\/66acd000-77fe-1000-9115-d80258410b14\/1033\/screenlg4.jpg",
              "Width": 1000
            },
            {
              "Height": 562,
              "Order": 5,
              "Purpose": "Slideshow",
              "Url": "http:\/\/download.xbox.com\/content\/images\/66acd000-77fe-1000-9115-d80258410b14\/1033\/screenlg5.jpg",
              "Width": 1000
            },
            {
              "Height": 562,
              "Order": 6,
              "Purpose": "Slideshow",
              "Url": "http:\/\/download.xbox.com\/content\/images\/66acd000-77fe-1000-9115-d80258410b14\/1033\/screenlg6.jpg",
              "Width": 1000
            },
            {
              "Height": 562,
              "Order": 7,
              "Purpose": "Slideshow",
              "Url": "http:\/\/download.xbox.com\/content\/images\/66acd000-77fe-1000-9115-d80258410b14\/1033\/screenlg7.jpg",
              "Width": 1000
            },
            {
              "Height": 562,
              "Order": 8,
              "Purpose": "Slideshow",
              "Url": "http:\/\/download.xbox.com\/content\/images\/66acd000-77fe-1000-9115-d80258410b14\/1033\/screenlg8.jpg",
              "Width": 1000
            },
            {
              "Height": 562,
              "Order": 9,
              "Purpose": "Slideshow",
              "Url": "http:\/\/download.xbox.com\/content\/images\/66acd000-77fe-1000-9115-d80258410b14\/1033\/screenlg9.jpg",
              "Width": 1000
            }
          ]
        }
      ],
      "OfferTargetTypes": [
        {
          "ItemType": 34,
          "ItemTypeId": 34,
          "Stores": 1,
          "SubscriptionLevel": 2
        }
      ],
      "CountryReleaseDate": "\/Date(26192160000000)\/",
      "Capabilities": [
        {
          "NonLocalizedName": "offlineMaxHDTVModeId",
          "Value": "1"
        },
        {
          "NonLocalizedName": "offlineDolbyDigital",
          "Value": "True"
        },
        {
          "NonLocalizedName": "onlineCoopPlayersMin",
          "Value": "2"
        },
        {
          "NonLocalizedName": "onlineCoopPlayersMax",
          "Value": "3"
        },
        {
          "NonLocalizedName": "onlineContentDownload",
          "Value": "True"
        },
        {
          "NonLocalizedName": "onlineLeaderboards",
          "Value": "True"
        }
      ],
      "AverageUserRating": 3.5,
      "HexTitleId": "0x58410b14",
      "GameCategories": [
        {
          "Id": 3000,
          "Name": "Game Genres",
          "SystemId": 3000
        },
        {
          "Id": 3027,
          "Name": "Xbox LIVE Games",
          "ParentId": 3000,
          "SystemId": 3000
        }
      ]
    },
    {
      "MediaGroup": 1,
      "MediaItemType": 1,
      "ID": "66acd000-77fe-1000-9115-d80245410998",
      "Name": "FIFA Soccer 13",
      "Description": "FIFA Soccer 13 delivers the largest and deepest feature set in the history of the franchise. Five game-changing innovations create a true battle for possession, deliver freedom and creativity in attack, and capture all the drama and unpredictability of real-world football.  Key features include Attacking Intelligence, FIFA Soccer 13 Complete Dribbling, FIFA Soccer 13 1st Touch Control, Tactical Free Kicks, refined fundamentals, the expansion of the player impact engine and complete authenticity with over 500 officially licensed clubs and more than 15,000 players. ",
      "ReducedDescription": "FIFA Soccer 13 delivers the largest and deepest feature set in the history of the franchise. Five game-changing innovations create a true battle for possession, deliver freedom and creativity in attack, and capture all the drama and unpredictability of real-world football. ",
      "ReducedName": "FIFA Soccer 13",
      "ReleaseDate": "\/Date(26192160000000)\/",
      "ItemTypeId": 1,
      "TitleId": "1161890200",
      "UserRatingCount": 8188,
      "VuiDisplayName": "FIFA Soccer 13",
      "Genres": [
        {
          "ID": 3013,
          "Name": "Sports & Recreation",
          "ParentId": 3027,
          "SystemId": 3000
        },
        {
          "ID": 3028,
          "Name": "Kinect",
          "ParentId": 3027,
          "SystemId": 3000
        }
      ],
      "DeveloperName": "EA Canada",
      "Images": [
        {
          "Height": 120,
          "Purpose": "BoxArt",
          "Url": "http:\/\/download.xbox.com\/content\/images\/66acd000-77fe-1000-9115-d80245410998\/1033\/boxartsm.jpg",
          "Width": 85
        },
        {
          "Height": 95,
          "Purpose": "SellImage",
          "Url": "http:\/\/download.xbox.com\/content\/images\/66acd000-77fe-1000-9115-d80245410998\/1033\/banner.png",
          "Width": 420
        },
        {
          "Height": 64,
          "Purpose": "Thumbnail",
          "Url": "http:\/\/download.xbox.com\/content\/images\/66acd000-77fe-1000-9115-d80245410998\/1033\/tile.png",
          "Width": 64
        },
        {
          "Height": 300,
          "Purpose": "BoxArt",
          "Url": "http:\/\/download.xbox.com\/content\/images\/66acd000-77fe-1000-9115-d80245410998\/1033\/boxartlg.jpg",
          "Width": 219
        },
        {
          "Height": 720,
          "Purpose": "WideBackgroundImage",
          "Url": "http:\/\/download.xbox.com\/content\/images\/66acd000-77fe-1000-9115-d80245410998\/1033\/background.jpg",
          "Width": 1280
        }
      ],
      "PublisherName": "Electronic Arts Inc.",
      "Updated": "\/Date(1343367565777)\/",
      "RatingId": "60",
      "Slideshows": [
        {
          "Images": [
            {
              "Height": 562,
              "Order": 1,
              "Purpose": "Slideshow",
              "Url": "http:\/\/download.xbox.com\/content\/images\/66acd000-77fe-1000-9115-d80245410998\/1033\/screenlg1.jpg",
              "Width": 1000
            },
            {
              "Height": 562,
              "Order": 2,
              "Purpose": "Slideshow",
              "Url": "http:\/\/download.xbox.com\/content\/images\/66acd000-77fe-1000-9115-d80245410998\/1033\/screenlg2.jpg",
              "Width": 1000
            },
            {
              "Height": 562,
              "Order": 3,
              "Purpose": "Slideshow",
              "Url": "http:\/\/download.xbox.com\/content\/images\/66acd000-77fe-1000-9115-d80245410998\/1033\/screenlg3.jpg",
              "Width": 1000
            },
            {
              "Height": 562,
              "Order": 4,
              "Purpose": "Slideshow",
              "Url": "http:\/\/download.xbox.com\/content\/images\/66acd000-77fe-1000-9115-d80245410998\/1033\/screenlg4.jpg",
              "Width": 1000
            }
          ]
        }
      ],
      "OfferTargetTypes": [
        {
          "ItemType": 34,
          "ItemTypeId": 34,
          "Stores": 1,
          "SubscriptionLevel": 2
        }
      ],
      "CountryReleaseDate": "\/Date(26192160000000)\/",
      "Capabilities": [
        {
          "NonLocalizedName": "offlinePlayersMin",
          "Value": "1"
        },
        {
          "NonLocalizedName": "offlinePlayersMax",
          "Value": "4"
        },
        {
          "NonLocalizedName": "offlineCoopPlayersMin",
          "Value": "1"
        },
        {
          "NonLocalizedName": "offlineCoopPlayersMax",
          "Value": "2"
        },
        {
          "NonLocalizedName": "offlineMaxHDTVModeId",
          "Value": "1"
        },
        {
          "NonLocalizedName": "offlineDolbyDigital",
          "Value": "True"
        },
        {
          "NonLocalizedName": "onlineMultiplayerMin",
          "Value": "2"
        },
        {
          "NonLocalizedName": "onlineMultiplayerMax",
          "Value": "22"
        },
        {
          "NonLocalizedName": "onlineCoopPlayersMin",
          "Value": "1"
        },
        {
          "NonLocalizedName": "onlineCoopPlayersMax",
          "Value": "4"
        },
        {
          "NonLocalizedName": "onlineContentDownload",
          "Value": "True"
        },
        {
          "NonLocalizedName": "onlineLeaderboards",
          "Value": "True"
        },
        {
          "NonLocalizedName": "onlineVoice",
          "Value": "True"
        }
      ],
      "AverageUserRating": 4.25,
      "HexTitleId": "0x45410998",
      "GameCategories": [
        {
          "Id": 3000,
          "Name": "Game Genres",
          "SystemId": 3000
        },
        {
          "Id": 3027,
          "Name": "Xbox LIVE Games",
          "ParentId": 3000,
          "SystemId": 3000
        }
      ]
    },
    {
      "MediaGroup": 1,
      "MediaItemType": 1,
      "ID": "66acd000-77fe-1000-9115-d8024541098e",
      "Name": "Crysis® 3",
      "Description": "The award-winning developer Crytek is back with Crysis 3, the first blockbuster shooter of 2013! Return to the fight as Prophet, the Nanosuit soldier on a quest to rediscover his humanity and exact brutal revenge. Adapt on the fly with the stealth and armor abilities of your unique Nanosuit as you battle through the seven wonders of New York’s Liberty Dome. Unleash the firepower of your all-new, high-tech bow and alien weaponry to hunt both human and alien enemies. Uncover the truth behind the death of your squad while reestablishing the power of human will in a rich story full of exciting twists and turns. Crysis 3 is the ultimate sandbox shooter, realized in the stunning visuals only Crytek and the latest version of CryENGINE can deliver. Assess, Adapt, and Attack starting spring 2013. ",
      "ReducedDescription": "Take on the role of ‘Prophet’ as he returns to New York, only to discover that the city has been encased in a Nanodome created by the corrupt Cell Corporation. Within the Liberty Dome, seven distinct and treacherous environments become known as the Seven Wonders.  Prophet will utilize a lethal composite bow, an enhanced Nanosuit and devastating alien tech to become the deadliest hunter on the planet. ",
      "ReducedName": "Crysis® 3",
      "ReleaseDate": "\/Date(26192160000000)\/",
      "ItemTypeId": 1,
      "TitleId": "1161890190",
      "UserRatingCount": 3651,
      "VuiDisplayName": "Crysis 3",
      "Genres": [
        {
          "ID": 3011,
          "Name": "Shooter",
          "ParentId": 3027,
          "SystemId": 3000
        }
      ],
      "DeveloperName": "Crytek",
      "Images": [
        {
          "Height": 300,
          "Purpose": "BoxArt",
          "Url": "http:\/\/download.xbox.com\/content\/images\/66acd000-77fe-1000-9115-d8024541098e\/1033\/boxartlg.jpg",
          "Width": 219
        },
        {
          "Height": 64,
          "Purpose": "Thumbnail",
          "Url": "http:\/\/download.xbox.com\/content\/images\/66acd000-77fe-1000-9115-d8024541098e\/1033\/tile.png",
          "Width": 64
        },
        {
          "Height": 95,
          "Purpose": "SellImage",
          "Url": "http:\/\/download.xbox.com\/content\/images\/66acd000-77fe-1000-9115-d8024541098e\/1033\/banner.png",
          "Width": 420
        },
        {
          "Height": 720,
          "Purpose": "WideBackgroundImage",
          "Url": "http:\/\/download.xbox.com\/content\/images\/66acd000-77fe-1000-9115-d8024541098e\/1033\/background.jpg",
          "Width": 1280
        },
        {
          "Height": 120,
          "Purpose": "BoxArt",
          "Url": "http:\/\/download.xbox.com\/content\/images\/66acd000-77fe-1000-9115-d8024541098e\/1033\/boxartsm.jpg",
          "Width": 85
        }
      ],
      "PublisherName": "Electronic Arts",
      "Updated": "\/Date(1343812497600)\/",
      "RatingId": "60",
      "Slideshows": [
        {
          "Images": [
            {
              "Height": 562,
              "Order": 1,
              "Purpose": "Slideshow",
              "Url": "http:\/\/download.xbox.com\/content\/images\/66acd000-77fe-1000-9115-d8024541098e\/1033\/screenlg1.jpg",
              "Width": 1000
            },
            {
              "Height": 562,
              "Order": 2,
              "Purpose": "Slideshow",
              "Url": "http:\/\/download.xbox.com\/content\/images\/66acd000-77fe-1000-9115-d8024541098e\/1033\/screenlg2.jpg",
              "Width": 1000
            },
            {
              "Height": 562,
              "Order": 3,
              "Purpose": "Slideshow",
              "Url": "http:\/\/download.xbox.com\/content\/images\/66acd000-77fe-1000-9115-d8024541098e\/1033\/screenlg3.jpg",
              "Width": 1000
            },
            {
              "Height": 562,
              "Order": 4,
              "Purpose": "Slideshow",
              "Url": "http:\/\/download.xbox.com\/content\/images\/66acd000-77fe-1000-9115-d8024541098e\/1033\/screenlg4.jpg",
              "Width": 1000
            }
          ]
        }
      ],
      "OfferTargetTypes": [
        {
          "ItemType": 34,
          "ItemTypeId": 34,
          "Stores": 1,
          "SubscriptionLevel": 2
        }
      ],
      "CountryReleaseDate": "\/Date(26192160000000)\/",
      "Capabilities": [
        {
          "NonLocalizedName": "offlineMaxHDTVModeId",
          "Value": "3"
        },
        {
          "NonLocalizedName": "offlineDolbyDigital",
          "Value": "True"
        },
        {
          "NonLocalizedName": "onlineMultiplayerMin",
          "Value": "2"
        },
        {
          "NonLocalizedName": "onlineMultiplayerMax",
          "Value": "12"
        },
        {
          "NonLocalizedName": "onlineContentDownload",
          "Value": "True"
        },
        {
          "NonLocalizedName": "onlineLeaderboards",
          "Value": "True"
        },
        {
          "NonLocalizedName": "onlineVoice",
          "Value": "True"
        }
      ],
      "AverageUserRating": 4.5,
      "HexTitleId": "0x4541098e",
      "GameCategories": [
        {
          "Id": 3000,
          "Name": "Game Genres",
          "SystemId": 3000
        },
        {
          "Id": 3027,
          "Name": "Xbox LIVE Games",
          "ParentId": 3000,
          "SystemId": 3000
        }
      ]
    },
    {
      "MediaGroup": 1,
      "MediaItemType": 1,
      "ID": "66acd000-77fe-1000-9115-d802555308b6",
      "Name": "Tom Clancy's Splinter Cell Blacklist",
      "Description": "Unleash the power or the most lethal agent to ever exist. You are Sam Fisher, and you've been given the ultimate freedom to protect innocents against a series of global terror attacks known as Blacklist - the freedom to use limitless force, to break every law, and to  become the globe's deadliest operative. If you succeed, the President of the United States will deny you exist. If you fail, millions will die. ",
      "ReducedDescription": "Unleash the power or the most lethal agent to ever exist. You are Sam Fisher, and you've been given the ultimate freedom to protect innocents against a series of global terror attacks known as Blacklist - the freedom to use limitless force, to break every law, and to  become the globe's deadliest operative. If you succeed, the President of the United States will deny you exist. If you fail, millions will die. ",
      "ReducedName": "Tom Clancy's Splinter Cell Blacklist",
      "ReleaseDate": "\/Date(26192160000000)\/",
      "ItemTypeId": 1,
      "TitleId": "1431505078",
      "UserRatingCount": 5016,
      "VuiDisplayName": "Splinter Cell Blacklist",
      "Genres": [
        {
          "ID": 3011,
          "Name": "Shooter",
          "ParentId": 3027,
          "SystemId": 3000
        }
      ],
      "DeveloperName": "Ubisoft",
      "Images": [
        {
          "Height": 64,
          "Purpose": "Thumbnail",
          "Url": "http:\/\/download.xbox.com\/content\/images\/66acd000-77fe-1000-9115-d802555308b6\/1033\/tile.png",
          "Width": 64
        },
        {
          "Height": 120,
          "Purpose": "BoxArt",
          "Url": "http:\/\/download.xbox.com\/content\/images\/66acd000-77fe-1000-9115-d802555308b6\/1033\/boxartsm.jpg",
          "Width": 85
        },
        {
          "Height": 300,
          "Purpose": "BoxArt",
          "Url": "http:\/\/download.xbox.com\/content\/images\/66acd000-77fe-1000-9115-d802555308b6\/1033\/boxartlg.jpg",
          "Width": 219
        },
        {
          "Height": 720,
          "Purpose": "WideBackgroundImage",
          "Url": "http:\/\/download.xbox.com\/content\/images\/66acd000-77fe-1000-9115-d802555308b6\/1033\/background.jpg",
          "Width": 1280
        },
        {
          "Height": 95,
          "Purpose": "SellImage",
          "Url": "http:\/\/download.xbox.com\/content\/images\/66acd000-77fe-1000-9115-d802555308b6\/1033\/banner.png",
          "Width": 420
        }
      ],
      "PublisherName": "Ubisoft",
      "Updated": "\/Date(1343367566240)\/",
      "RatingId": "60",
      "Slideshows": [
        {
          "Images": [
            {
              "Height": 562,
              "Order": 1,
              "Purpose": "Slideshow",
              "Url": "http:\/\/download.xbox.com\/content\/images\/66acd000-77fe-1000-9115-d802555308b6\/1033\/screenlg1.jpg",
              "Width": 1000
            },
            {
              "Height": 562,
              "Order": 2,
              "Purpose": "Slideshow",
              "Url": "http:\/\/download.xbox.com\/content\/images\/66acd000-77fe-1000-9115-d802555308b6\/1033\/screenlg2.jpg",
              "Width": 1000
            },
            {
              "Height": 562,
              "Order": 3,
              "Purpose": "Slideshow",
              "Url": "http:\/\/download.xbox.com\/content\/images\/66acd000-77fe-1000-9115-d802555308b6\/1033\/screenlg3.jpg",
              "Width": 1000
            }
          ]
        }
      ],
      "OfferTargetTypes": [
        {
          "ItemType": 34,
          "ItemTypeId": 34,
          "Stores": 1,
          "SubscriptionLevel": 2
        }
      ],
      "CountryReleaseDate": "\/Date(26192160000000)\/",
      "Capabilities": [
        {
          "NonLocalizedName": "offlineCoopPlayersMin",
          "Value": "2"
        },
        {
          "NonLocalizedName": "offlineCoopPlayersMax",
          "Value": "2"
        },
        {
          "NonLocalizedName": "offlineMaxHDTVModeId",
          "Value": "1"
        },
        {
          "NonLocalizedName": "offlineDolbyDigital",
          "Value": "True"
        },
        {
          "NonLocalizedName": "onlineMultiplayerMin",
          "Value": "2"
        },
        {
          "NonLocalizedName": "onlineMultiplayerMax",
          "Value": "10"
        },
        {
          "NonLocalizedName": "onlineCoopPlayersMin",
          "Value": "2"
        },
        {
          "NonLocalizedName": "onlineCoopPlayersMax",
          "Value": "2"
        },
        {
          "NonLocalizedName": "onlineContentDownload",
          "Value": "True"
        },
        {
          "NonLocalizedName": "onlineLeaderboards",
          "Value": "True"
        },
        {
          "NonLocalizedName": "onlineVoice",
          "Value": "True"
        }
      ],
      "AverageUserRating": 4.5,
      "HexTitleId": "0x555308b6",
      "GameCategories": [
        {
          "Id": 3000,
          "Name": "Game Genres",
          "SystemId": 3000
        },
        {
          "Id": 3027,
          "Name": "Xbox LIVE Games",
          "ParentId": 3000,
          "SystemId": 3000
        }
      ]
    },
    {
      "MediaGroup": 1,
      "MediaItemType": 1,
      "ID": "66acd000-77fe-1000-9115-d8024541099d",
      "Name": "Dead Space ™ 3",
      "Description": "Dead Space 3 brings Isaac Clarke and merciless soldier John Carver on a journey across space to discover the source of the Necromorph outbreak. Crash-landed on the frozen planet of Tau Volantis, Isaac must comb the harsh environment for raw materials and scavenged parts. He will then put his engineering skills to the ultimate test to create and customize weapons and survival tools. The ice planet holds the key to ending the Necromorph plague forever, but first Isaac must overcome avalanches, treacherous ice-climbs, and the violent wilderness. Facing deadlier evolved enemies and the brutal elements, Isaac can choose to team up, not only for his own survival, but for that of mankind’s. Play together with a friend or go it alone as Isaac Clarke using the seamless new drop in, drop out co-op functionality. Each mode offers unique story elements and gameplay.  o Play the full campaign in online co-op or single player o Easy drop-in and drop-out play",
      "ReducedDescription": "Dead Space 3 brings Isaac Clarke and soldier John Carver on a journey across space to discover the source of the Necromorph outbreak. Crash-landed on a frozen planet, facing evolved enemies and the brutal elements, Isaac can choose to team up, not only for his own survival, but for that of mankind’s. Play with a friend or go it alone as Isaac, using  new drop in, drop out co-op functionality. ",
      "ReducedName": "Dead Space ™ 3",
      "ReleaseDate": "\/Date(26192160000000)\/",
      "ItemTypeId": 1,
      "TitleId": "1161890205",
      "UserRatingCount": 4667,
      "VuiDisplayName": "Dead Space 3",
      "Genres": [
        {
          "ID": 3002,
          "Name": "Action & Adventure",
          "ParentId": 3027,
          "SystemId": 3000
        },
        {
          "ID": 3028,
          "Name": "Kinect",
          "ParentId": 3027,
          "SystemId": 3000
        }
      ],
      "DeveloperName": "Visceral",
      "Images": [
        {
          "Height": 720,
          "Purpose": "WideBackgroundImage",
          "Url": "http:\/\/download.xbox.com\/content\/images\/66acd000-77fe-1000-9115-d8024541099d\/1033\/background.jpg",
          "Width": 1280
        },
        {
          "Height": 300,
          "Purpose": "BoxArt",
          "Url": "http:\/\/download.xbox.com\/content\/images\/66acd000-77fe-1000-9115-d8024541099d\/1033\/boxartlg.jpg",
          "Width": 219
        },
        {
          "Height": 120,
          "Purpose": "BoxArt",
          "Url": "http:\/\/download.xbox.com\/content\/images\/66acd000-77fe-1000-9115-d8024541099d\/1033\/boxartsm.jpg",
          "Width": 85
        },
        {
          "Height": 95,
          "Purpose": "SellImage",
          "Url": "http:\/\/download.xbox.com\/content\/images\/66acd000-77fe-1000-9115-d8024541099d\/1033\/banner.png",
          "Width": 420
        },
        {
          "Height": 64,
          "Purpose": "Thumbnail",
          "Url": "http:\/\/download.xbox.com\/content\/images\/66acd000-77fe-1000-9115-d8024541099d\/1033\/tile.png",
          "Width": 64
        }
      ],
      "PublisherName": "Electronic Arts",
      "Updated": "\/Date(1343367565777)\/",
      "RatingId": "60",
      "Slideshows": [
        {
          "Images": [
            {
              "Height": 562,
              "Order": 1,
              "Purpose": "Slideshow",
              "Url": "http:\/\/download.xbox.com\/content\/images\/66acd000-77fe-1000-9115-d8024541099d\/1033\/screenlg1.jpg",
              "Width": 1000
            },
            {
              "Height": 562,
              "Order": 2,
              "Purpose": "Slideshow",
              "Url": "http:\/\/download.xbox.com\/content\/images\/66acd000-77fe-1000-9115-d8024541099d\/1033\/screenlg2.jpg",
              "Width": 1000
            },
            {
              "Height": 562,
              "Order": 3,
              "Purpose": "Slideshow",
              "Url": "http:\/\/download.xbox.com\/content\/images\/66acd000-77fe-1000-9115-d8024541099d\/1033\/screenlg3.jpg",
              "Width": 1000
            },
            {
              "Height": 562,
              "Order": 4,
              "Purpose": "Slideshow",
              "Url": "http:\/\/download.xbox.com\/content\/images\/66acd000-77fe-1000-9115-d8024541099d\/1033\/screenlg4.jpg",
              "Width": 1000
            },
            {
              "Height": 562,
              "Order": 5,
              "Purpose": "Slideshow",
              "Url": "http:\/\/download.xbox.com\/content\/images\/66acd000-77fe-1000-9115-d8024541099d\/1033\/screenlg5.jpg",
              "Width": 1000
            },
            {
              "Height": 562,
              "Order": 6,
              "Purpose": "Slideshow",
              "Url": "http:\/\/download.xbox.com\/content\/images\/66acd000-77fe-1000-9115-d8024541099d\/1033\/screenlg6.jpg",
              "Width": 1000
            }
          ]
        }
      ],
      "OfferTargetTypes": [
        {
          "ItemType": 34,
          "ItemTypeId": 34,
          "Stores": 1,
          "SubscriptionLevel": 2
        }
      ],
      "CountryReleaseDate": "\/Date(26192160000000)\/",
      "Capabilities": [
        {
          "NonLocalizedName": "offlineMaxHDTVModeId",
          "Value": "1"
        },
        {
          "NonLocalizedName": "offlineDolbyDigital",
          "Value": "True"
        },
        {
          "NonLocalizedName": "onlineCoopPlayersMin",
          "Value": "1"
        },
        {
          "NonLocalizedName": "onlineCoopPlayersMax",
          "Value": "2"
        },
        {
          "NonLocalizedName": "onlineContentDownload",
          "Value": "True"
        },
        {
          "NonLocalizedName": "onlineLeaderboards",
          "Value": "True"
        },
        {
          "NonLocalizedName": "onlineVoice",
          "Value": "True"
        }
      ],
      "AverageUserRating": 4.75,
      "HexTitleId": "0x4541099d",
      "GameCategories": [
        {
          "Id": 3000,
          "Name": "Game Genres",
          "SystemId": 3000
        },
        {
          "Id": 3027,
          "Name": "Xbox LIVE Games",
          "ParentId": 3000,
          "SystemId": 3000
        }
      ]
    },
    {
      "MediaGroup": 1,
      "MediaItemType": 23,
      "ID": "66acd000-77fe-1000-9115-d8025841122d",
      "Name": "Rock Band Blitz",
      "Description": "(Online Interactions Not Rated by the ESRB)  (Music Downloads Not Rated by the ESRB)  Rock Band Blitz brings the excitement of a full band into your hands, transforming classic Rock Band gameplay into an addictive, single player experience–no instruments needed! Compete with friends on 20+ new tracks, also instantly playable in Rock Band 3.  Add your own favorite music: Rock Band Blitz is compatible with 3,500+ songs in the Rock Band library. With endless combinations of power-ups, instrument multipliers and more, Rock Band Blitz makes every song a replayable rock explosion!",
      "ReducedDescription": "Rock Band Blitz brings the excitement of a full band into your hands, transforming classic Rock Band gameplay into an addictive, single player experience–no instruments needed! Compete with friends on 20+ new tracks, also instantly playable in Rock Band 3.  Add your own favorite music: Rock Band Blitz is compatible with 3,500+ songs in the Rock Band library. With endless combinations of power-ups, instrument multipliers and more, Rock Band Blitz makes every song a replayable rock explosion!",
      "ReducedName": "Rock Band Blitz",
      "ReleaseDate": "\/Date(26192160000000)\/",
      "ItemTypeId": 23,
      "TitleId": "1480659501",
      "UserRatingCount": 4032,
      "VuiDisplayName": "Rock Band Blitz",
      "Genres": [
        {
          "ID": 3007,
          "Name": "Music",
          "ParentId": 3027,
          "SystemId": 3000
        },
        {
          "ID": 3012,
          "Name": "Strategy & Simulation",
          "ParentId": 3027,
          "SystemId": 3000
        }
      ],
      "DeveloperName": "Harmonix",
      "Images": [
        {
          "Height": 95,
          "Purpose": "SellImage",
          "Url": "http:\/\/download.xbox.com\/content\/images\/66acd000-77fe-1000-9115-d8025841122d\/1033\/banner.png",
          "Width": 420
        },
        {
          "Height": 64,
          "Purpose": "Thumbnail",
          "Url": "http:\/\/download.xbox.com\/content\/images\/66acd000-77fe-1000-9115-d8025841122d\/1033\/tile.png",
          "Width": 64
        },
        {
          "Height": 120,
          "Purpose": "BoxArt",
          "Url": "http:\/\/download.xbox.com\/content\/images\/66acd000-77fe-1000-9115-d8025841122d\/1033\/boxartsm.jpg",
          "Width": 85
        },
        {
          "Height": 720,
          "Purpose": "WideBackgroundImage",
          "Url": "http:\/\/download.xbox.com\/content\/images\/66acd000-77fe-1000-9115-d8025841122d\/1033\/background.jpg",
          "Width": 1280
        },
        {
          "Height": 300,
          "Purpose": "BoxArt",
          "Url": "http:\/\/download.xbox.com\/content\/images\/66acd000-77fe-1000-9115-d8025841122d\/1033\/boxartlg.jpg",
          "Width": 219
        }
      ],
      "PublisherName": "Harmonix",
      "Updated": "\/Date(1343753192930)\/",
      "OfferInstances": [
      ],
      "ParentItems": [
        {
          "ID": "66acd000-77fe-1000-9115-d8025841122d",
          "ReducedName": "Rock Band Blitz",
          "ParentPriorityOrder": 0
        }
      ],
      "RatingId": "30",
      "Slideshows": [
        {
          "Images": [
            {
              "Height": 562,
              "Order": 1,
              "Purpose": "Slideshow",
              "Url": "http:\/\/download.xbox.com\/content\/images\/66acd000-77fe-1000-9115-d8025841122d\/1033\/screenlg1.jpg",
              "Width": 1000
            },
            {
              "Height": 562,
              "Order": 2,
              "Purpose": "Slideshow",
              "Url": "http:\/\/download.xbox.com\/content\/images\/66acd000-77fe-1000-9115-d8025841122d\/1033\/screenlg2.jpg",
              "Width": 1000
            },
            {
              "Height": 562,
              "Order": 3,
              "Purpose": "Slideshow",
              "Url": "http:\/\/download.xbox.com\/content\/images\/66acd000-77fe-1000-9115-d8025841122d\/1033\/screenlg3.jpg",
              "Width": 1000
            },
            {
              "Height": 562,
              "Order": 4,
              "Purpose": "Slideshow",
              "Url": "http:\/\/download.xbox.com\/content\/images\/66acd000-77fe-1000-9115-d8025841122d\/1033\/screenlg4.jpg",
              "Width": 1000
            },
            {
              "Height": 562,
              "Order": 5,
              "Purpose": "Slideshow",
              "Url": "http:\/\/download.xbox.com\/content\/images\/66acd000-77fe-1000-9115-d8025841122d\/1033\/screenlg5.jpg",
              "Width": 1000
            },
            {
              "Height": 562,
              "Order": 6,
              "Purpose": "Slideshow",
              "Url": "http:\/\/download.xbox.com\/content\/images\/66acd000-77fe-1000-9115-d8025841122d\/1033\/screenlg6.jpg",
              "Width": 1000
            },
            {
              "Height": 562,
              "Order": 7,
              "Purpose": "Slideshow",
              "Url": "http:\/\/download.xbox.com\/content\/images\/66acd000-77fe-1000-9115-d8025841122d\/1033\/screenlg7.jpg",
              "Width": 1000
            },
            {
              "Height": 562,
              "Order": 8,
              "Purpose": "Slideshow",
              "Url": "http:\/\/download.xbox.com\/content\/images\/66acd000-77fe-1000-9115-d8025841122d\/1033\/screenlg8.jpg",
              "Width": 1000
            }
          ]
        }
      ],
      "OfferTargetTypes": [
        {
          "ItemType": 18,
          "ItemTypeId": 18,
          "Stores": 1,
          "SubscriptionLevel": 2
        }
      ],
      "CountryReleaseDate": "\/Date(26192160000000)\/",
      "Capabilities": [
        {
          "NonLocalizedName": "offlineMaxHDTVModeId",
          "Value": "1"
        },
        {
          "NonLocalizedName": "offlineDolbyDigital",
          "Value": "True"
        },
        {
          "NonLocalizedName": "onlineContentDownload",
          "Value": "True"
        },
        {
          "NonLocalizedName": "onlineLeaderboards",
          "Value": "True"
        }
      ],
      "AverageUserRating": 3.5,
      "HexTitleId": "0x5841122d",
      "GameCategories": [
        {
          "Id": 3000,
          "Name": "Game Genres",
          "SystemId": 3000
        },
        {
          "Id": 3027,
          "Name": "Xbox LIVE Games",
          "ParentId": 3000,
          "SystemId": 3000
        },
        {
          "Id": 12001,
          "Name": "Game Publisher Bit 1",
          "SystemId": 12000
        }
      ]
    }
  ],
  "Totals": [
    {
      "Name": "GameType",
      "Count": 1333,
      "MediaItemTypes": [
        {
          "Name": "XboxArcadeGame",
          "Count": 492
        },
        {
          "Name": "Xbox360Game",
          "Count": 841
        }
      ]
    }
  ]
}
